<?xml version="1.0" encoding="utf-8"?>
<!-- Generator: Adobe Illustrator 17.0.0, SVG Export Plug-In . SVG Version: 6.00 Build 0)  -->
<!DOCTYPE svg PUBLIC "-//W3C//DTD SVG 1.1//EN" "http://www.w3.org/Graphics/SVG/1.1/DTD/svg11.dtd">
<svg version="1.1" xmlns="http://www.w3.org/2000/svg" xmlns:xlink="http://www.w3.org/1999/xlink" x="0px" y="0px"
	 width="16.963px" height="17px" viewBox="0 0 16.963 17" enable-background="new 0 0 16.963 17" xml:space="preserve">
<g id="_x31_7px_hight" display="none">
	<rect x="0" display="inline" opacity="0.4" fill="#040305" width="16.963" height="17"/>
	<rect x="27.025" y="7.705" display="inline" fill="#F26538" width="4.375" height="7.607"/>
	<rect x="27.025" y="-1.31" display="inline" fill="#F6873C" width="4.375" height="7.607"/>
</g>
<g id="Contact_book" display="none">
	<g display="inline">
		<g>
			<path fill="#F26538" d="M14.309,4.235L6.397,0.157C5.313-0.415,3.176,0.689,2.562,1.66C2.288,2.094,2.308,2.407,2.308,2.584
				l0.098,9.21c0.007,0.195,0.253,0.459,0.464,0.589c0.439,0.269,7.086,4.419,7.274,4.536c0.101,0.064,0.222,0.093,0.339,0.093
				c0.1,0,0.202-0.022,0.294-0.068c0.199-0.098,0.324-0.288,0.324-0.496V6.775c0-0.202-0.118-0.388-0.309-0.489L3.6,2.272
				c0.082-0.158,0.401-0.493,0.989-0.801c0.62-0.324,1.084-0.202,1.19-0.161c0,0,6.902,3.694,7.113,3.804
				c0.21,0.11,0.215,0.126,0.215,0.314v9.179c0,0.458,0.465,0.646,0.806,0.646c0.341,0,0.704-0.334,0.704-0.646V4.724
				C14.618,4.522,14.499,4.336,14.309,4.235L14.309,4.235z M14.309,4.235"/>
		</g>
	</g>
</g>
<g id="Favourite" display="none">
	<path display="inline" fill="#F26538" d="M8.48,2.096l1.776,3.57l0.392,0.789l0.872,0.124l3.942,0.56l-2.851,2.797l-0.629,0.617
		l0.152,0.868l0.686,3.927l-3.529-1.844L8.51,13.095l-0.779,0.413l-3.523,1.867l0.662-3.932l0.146-0.868L4.385,9.961L1.52,7.184
		l3.949-0.587l0.871-0.13l0.387-0.791L8.48,2.096 M8.473,0.02c-0.186,0-0.358,0.106-0.442,0.278L5.564,5.337L0.01,6.163
		C-0.176,6.192-0.33,6.32-0.388,6.499C-0.447,6.678-0.395,6.875-0.26,7.003l4.03,3.906l-0.932,5.532
		c-0.033,0.186,0.044,0.373,0.197,0.482c0.084,0.062,0.186,0.095,0.289,0.095c0.08,0,0.157-0.018,0.23-0.059l4.959-2.627
		l4.973,2.598c0.073,0.037,0.15,0.055,0.227,0.055c0.27,0,0.493-0.223,0.493-0.493c0-0.04-0.004-0.077-0.015-0.113l-0.961-5.499
		l4.005-3.928c0.143-0.132,0.19-0.329,0.132-0.508c-0.058-0.179-0.212-0.307-0.398-0.336l-5.554-0.789L8.915,0.294
		C8.831,0.126,8.659,0.02,8.473,0.02L8.473,0.02z"/>
</g>
<g id="History" display="none">
	<g display="inline">
		<g enable-background="new    ">
			<path fill="#F26538" d="M8.514,1.093c4.09,0,7.418,3.328,7.418,7.418s-3.328,7.418-7.418,7.418c-1.857,0-3.634-0.69-5.004-1.942
				l-0.668,0.731c1.495,1.367,3.486,2.201,5.672,2.201c4.644,0,8.408-3.764,8.408-8.408s-3.764-8.408-8.408-8.408l0,0
				c-4.644,0-8.408,3.764-8.408,8.408h0.99C1.096,4.42,4.424,1.093,8.514,1.093"/>
		</g>
		<polygon fill="#F26538" points="0.372,9.283 3.353,7.227 -1.688,6.295 		"/>
		<polyline fill="none" stroke="#F26538" stroke-miterlimit="10" points="8.213,3.708 8.213,8.5 12.796,8.5 		"/>
	</g>
</g>
<g id="Quick_call" display="none">
	<g display="inline">
		<g>
			<path fill="#F26538" d="M10.026,13.733H4.201v-1.08h5.824c0.504,0,0.918-0.133,1.266-0.406c0.312-0.244,0.457-0.507,0.457-0.827
				V9.29l4.024,3.15V4.62l-4.024,3.083V5.579c0-0.201-0.048-0.506-0.457-0.827c-0.347-0.272-0.762-0.405-1.266-0.405h-5.15V3.266
				h5.15c0.744,0,1.394,0.214,1.933,0.635c0.544,0.426,0.843,0.973,0.869,1.587l2.296-1.793c0.254-0.213,0.652-0.296,1.04-0.177
				c0.438,0.148,0.69,0.475,0.69,0.88v8.205c0,0.405-0.252,0.732-0.674,0.875c-0.458,0.137-0.798,0.042-1.069-0.183l-2.283-1.787
				c-0.026,0.616-0.325,1.165-0.869,1.591C11.42,13.521,10.77,13.733,10.026,13.733z"/>
		</g>
		<rect x="2.23" y="10.505" fill="#F26538" width="6.433" height="1.08"/>
		<rect x="3.122" y="5.76" fill="#F26538" width="3.394" height="1.081"/>
		<rect x="-0.185" y="8.211" fill="#F26538" width="5.606" height="1.081"/>
		<rect x="2.326" y="12.653" fill="#F26538" width="1.112" height="1.08"/>
		<rect x="7.396" y="5.76" fill="#F26538" width="1.649" height="1.081"/>
	</g>
</g>
<g id="Change_Passwoard" display="none">
	<g display="inline">
		<path fill="#7E7F7F" d="M11.033,0.024c-3.166,0-5.742,2.576-5.742,5.742c0,0.704,0.125,1.388,0.372,2.037l-5.49,5.49
			c-0.078,0.078-0.123,0.185-0.123,0.296v3.004c0,0.231,0.187,0.418,0.418,0.418h2.476c0.111,0,0.217-0.044,0.296-0.122l0.834-0.833
			c0.079-0.078,0.123-0.185,0.123-0.296v-1.024h1.023c0.231,0,0.418-0.187,0.418-0.418v-0.41h0.41c0.231,0,0.418-0.187,0.418-0.418
			v-0.9h0.9c0.111,0,0.217-0.044,0.296-0.123l1.331-1.331c0.65,0.247,1.334,0.372,2.038,0.372c3.166,0,5.742-2.576,5.742-5.742
			C16.774,2.6,14.198,0.024,11.033,0.024z M11.033,10.67c-0.685,0-1.347-0.138-1.969-0.411c-0.161-0.071-0.342-0.032-0.46,0.084
			c-0.001,0.001-0.003,0.002-0.004,0.004l-1.405,1.405H6.049c-0.231,0-0.418,0.187-0.418,0.418v0.9h-0.41
			c-0.231,0-0.418,0.187-0.418,0.418v0.41H3.779c-0.231,0-0.418,0.187-0.418,0.418v1.269l-0.589,0.588H0.888v-0.591l5.114-5.114
			c0.147-0.147,0.147-0.385,0-0.533c-0.147-0.147-0.385-0.147-0.533,0l-4.582,4.582v-0.756l5.564-5.564
			c0.001-0.001,0.002-0.002,0.003-0.004c0.116-0.118,0.154-0.299,0.084-0.46C6.266,7.113,6.128,6.451,6.128,5.766
			c0-2.704,2.2-4.905,4.905-4.905s4.905,2.2,4.905,4.905C15.937,8.47,13.737,10.67,11.033,10.67z"/>
	</g>
	<path display="inline" fill="#7E7F7F" d="M12.198,3.007c-0.82,0-1.486,0.667-1.486,1.486s0.667,1.486,1.486,1.486
		c0.82,0,1.486-0.667,1.486-1.486S13.017,3.007,12.198,3.007z M12.198,5.223c-0.402,0-0.729-0.327-0.729-0.729
		s0.327-0.729,0.729-0.729c0.402,0,0.729,0.327,0.729,0.729S12.6,5.223,12.198,5.223z"/>
</g>
<g id="Invited_friends" display="none">
	<path display="inline" fill="#7E7F7F" d="M19.054,8.905l-2.488-6.726c-0.09-0.244-0.271-0.439-0.507-0.548
		c-0.237-0.109-0.502-0.119-0.746-0.029L3.179,6.092C2.934,6.182,2.74,6.362,2.631,6.599C2.522,6.836,2.512,7.101,2.602,7.345
		l2.488,6.726c0.09,0.244,0.271,0.439,0.507,0.548c0.13,0.06,0.268,0.09,0.407,0.09c0.114,0,0.229-0.02,0.339-0.061l12.134-4.489h0
		C18.982,9.972,19.241,9.41,19.054,8.905z M10.882,8.27L4.522,6.635L14.645,2.89L10.882,8.27z M10.966,9.299
		c0.04,0.01,0.081,0.016,0.121,0.016c0.157,0,0.307-0.076,0.4-0.208l0.772-1.105l4.998,1.568L6.887,13.407l2.775-4.443L10.966,9.299
		z M17.964,8.769l-5.117-1.605l2.958-4.23L17.964,8.769z M3.671,7.423L8.67,8.709l-2.84,4.549L3.671,7.423z"/>
	<path display="inline" fill="#7E7F7F" d="M2.367,13.916l-1.838,0.68C0.276,14.69,0.147,14.97,0.24,15.223
		c0.073,0.197,0.259,0.319,0.458,0.319c0.056,0,0.113-0.01,0.169-0.03l1.838-0.68c0.253-0.093,0.382-0.374,0.288-0.627
		C2.9,13.952,2.619,13.823,2.367,13.916z"/>
	<path display="inline" fill="#7E7F7F" d="M-1.086,10.753c0.056,0,0.113-0.01,0.169-0.03l1.135-0.42
		C0.47,10.21,0.599,9.929,0.506,9.676C0.412,9.424,0.131,9.295-0.121,9.388l-1.135,0.42c-0.253,0.094-0.382,0.374-0.288,0.627
		C-1.471,10.632-1.285,10.753-1.086,10.753z"/>
	<path display="inline" fill="#7E7F7F" d="M-1.528,13.083l-0.843,0.312c-0.253,0.094-0.382,0.374-0.288,0.627
		c0.073,0.197,0.259,0.319,0.458,0.319c0.056,0,0.113-0.01,0.169-0.03l0.843-0.312c0.253-0.094,0.382-0.374,0.288-0.627
		C-0.995,13.119-1.275,12.99-1.528,13.083z"/>
</g>
<g id="Log_out" display="none">
	<g display="inline">
		<g>
			<path fill="#EFDCD7" d="M15.139,11.799c-1.599,3.6-5.828,5.229-9.429,3.631S0.481,9.601,2.079,6.001
				c0.726-1.635,2.027-2.93,3.665-3.646L5.362,1.481c-1.788,0.782-3.3,2.209-4.155,4.133c-1.815,4.088,0.028,8.873,4.115,10.688
				s8.873-0.028,10.688-4.115l0,0c1.815-4.088-0.028-8.873-4.115-10.688L11.508,2.37C15.109,3.969,16.737,8.198,15.139,11.799"/>
		</g>
	</g>
	<g display="inline">
		<line fill="#EFDCD7" x1="8.514" y1="0" x2="8.514" y2="8.939"/>
		<rect x="8.114" fill="#EFDCD7" width="0.8" height="8.938"/>
	</g>
</g>
<g id="My_group" display="none">
	<path display="inline" fill="#7E7F7F" d="M3.072,13.931c-0.343,0.282-0.542,0.704-0.542,1.153v1.601
		c0,0.199,0.159,0.358,0.358,0.358c0.199,0,0.358-0.159,0.358-0.358v-1.601c0-0.235,0.101-0.452,0.282-0.6
		c1.42-1.167,2.963-1.944,3.255-2.088c0.159-0.076,0.26-0.239,0.26-0.415V9.725c0-0.119-0.061-0.231-0.159-0.296
		c-0.195-0.13-0.311-0.347-0.311-0.578V6.513c0-0.965,0.784-1.749,1.749-1.749h0.502c0.965,0,1.749,0.784,1.749,1.749v2.338
		c0,0.231-0.116,0.448-0.311,0.578c-0.101,0.065-0.159,0.177-0.159,0.296v2.251c0,0.177,0.101,0.34,0.26,0.415
		c0.296,0.144,1.836,0.921,3.256,2.089c0.177,0.148,0.282,0.365,0.282,0.6v1.601c0,0.199,0.159,0.358,0.358,0.358
		c0.199,0,0.358-0.159,0.358-0.358V15.08c0-0.448-0.199-0.867-0.542-1.153c-1.322-1.087-2.746-1.85-3.255-2.11V9.895
		c0.296-0.267,0.47-0.647,0.47-1.052V6.505c0-1.359-1.106-2.464-2.464-2.464H8.322c-1.359,0-2.464,1.106-2.464,2.464v2.338
		c0,0.405,0.174,0.784,0.47,1.052v1.922C5.818,12.077,4.399,12.843,3.072,13.931L3.072,13.931z M3.072,13.931"/>
	<path display="inline" fill="#7E7F7F" d="M7.233,3.61c-0.17-0.977-1.016-1.723-2.041-1.723H4.784c-1.142,0-2.074,0.929-2.074,2.074
		v1.904c0,0.34,0.141,0.658,0.383,0.885v1.496C2.649,8.474,1.518,9.089,0.466,9.952C0.17,10.194,0,10.555,0,10.942v1.305
		c0,0.199,0.159,0.358,0.358,0.358c0.199,0,0.358-0.159,0.358-0.358v-1.305c0-0.17,0.076-0.329,0.206-0.437
		C2.074,9.558,3.321,8.93,3.563,8.81c0.152-0.072,0.249-0.231,0.249-0.398V6.577c0-0.119-0.061-0.231-0.159-0.296
		C3.512,6.187,3.429,6.032,3.429,5.866V3.961c0-0.748,0.611-1.359,1.359-1.359h0.408c0.718,0,1.304,0.565,1.35,1.271
		C6.672,3.75,6.98,3.606,7.233,3.61z"/>
	<path display="inline" fill="#7E7F7F" d="M5.192,2.075"/>
	<path display="inline" fill="#7E7F7F" d="M9.729,3.61c0.17-0.977,1.016-1.723,2.041-1.723h0.408c1.142,0,2.074,0.929,2.074,2.074
		v1.904c0,0.34-0.141,0.658-0.383,0.885v1.496c0.444,0.228,1.575,0.842,2.627,1.706c0.296,0.242,0.466,0.603,0.466,0.99v1.305
		c0,0.199-0.159,0.358-0.358,0.358c-0.199,0-0.358-0.159-0.358-0.358v-1.305c0-0.17-0.076-0.329-0.206-0.437
		C14.889,9.558,13.642,8.93,13.4,8.81c-0.152-0.072-0.249-0.231-0.249-0.398V6.577c0-0.119,0.061-0.231,0.159-0.296
		c0.141-0.094,0.224-0.249,0.224-0.415V3.961c0-0.748-0.611-1.359-1.359-1.359h-0.408c-0.718,0-1.304,0.565-1.35,1.271
		C10.227,3.746,9.955,3.603,9.729,3.61z"/>
</g>
<g id="Account" display="none">
	<path display="inline" fill="#7E7F7F" d="M2.559,12.066c-0.369,0.303-0.584,0.758-0.584,1.241v1.723
		c0,0.214,0.171,0.385,0.385,0.385c0.214,0,0.385-0.171,0.385-0.385v-1.723c0-0.253,0.109-0.486,0.304-0.646
		c1.529-1.257,3.19-2.093,3.505-2.248c0.171-0.082,0.28-0.257,0.28-0.447V7.538c0-0.128-0.066-0.249-0.171-0.319
		c-0.21-0.14-0.334-0.373-0.334-0.622V4.079c0-1.039,0.844-1.883,1.883-1.883h0.541c1.039,0,1.883,0.844,1.883,1.883v2.517
		c0,0.249-0.124,0.482-0.334,0.622c-0.109,0.07-0.171,0.191-0.171,0.319v2.424c0,0.191,0.109,0.366,0.28,0.447
		c0.319,0.156,1.976,0.992,3.505,2.249c0.191,0.159,0.303,0.393,0.303,0.646v1.723c0,0.214,0.171,0.385,0.385,0.385
		c0.214,0,0.385-0.171,0.385-0.385v-1.723c0-0.482-0.214-0.934-0.584-1.241c-1.424-1.171-2.957-1.992-3.505-2.272V7.72
		c0.319-0.288,0.506-0.696,0.506-1.132V4.071c0-1.463-1.19-2.653-2.653-2.653H8.211c-1.463,0-2.653,1.19-2.653,2.653v2.517
		c0,0.436,0.187,0.844,0.506,1.132V9.79C5.515,10.07,3.986,10.895,2.559,12.066L2.559,12.066z M2.559,12.066"/>
	<path display="inline" fill="#2D3034" d="M5.192,2.882"/>
	<path display="inline" fill="#7E7F7F" d="M13.025,15.411h-2.289c-0.221,0-0.4-0.18-0.4-0.4c0-0.649-0.33-1.24-0.884-1.58
		c-0.607-0.373-1.418-0.354-2.007,0.042c-0.512,0.347-0.818,0.922-0.818,1.538c0,0.221-0.179,0.4-0.4,0.4H4.213
		c-0.221,0-0.4-0.18-0.4-0.4s0.179-0.4,0.4-0.4h1.645c0.11-0.727,0.519-1.381,1.14-1.8c0.845-0.57,2.004-0.597,2.874-0.062
		c0.677,0.416,1.121,1.094,1.235,1.861h1.919c0.221,0,0.4,0.18,0.4,0.4S13.246,15.411,13.025,15.411z"/>
</g>
<g id="_x31_to1_call" display="none">
	<circle display="inline" fill="#F26538" cx="8.481" cy="8.481" r="8.481"/>
	<path display="inline" fill="#FFFFFF" d="M12.222,10.099c-0.791-0.65-1.642-1.106-1.947-1.262V7.687
		c0.177-0.16,0.281-0.387,0.281-0.629V5.661c0-0.812-0.661-1.474-1.474-1.474h-0.3c-0.812,0-1.474,0.661-1.474,1.474v1.398
		c0,0.242,0.104,0.469,0.281,0.629v1.149c-0.148,0.075-0.43,0.23-0.766,0.437c0.05,0.137,0.182,0.225,0.237,0.359
		c0.429-0.266,0.702-0.402,0.8-0.451C7.957,9.137,8.018,9.04,8.018,8.934V7.586c0-0.071-0.037-0.138-0.095-0.177
		C7.806,7.331,7.737,7.201,7.737,7.063V5.665c0-0.577,0.469-1.046,1.046-1.046h0.3c0.577,0,1.046,0.469,1.046,1.046v1.398
		c0,0.138-0.069,0.268-0.186,0.346C9.882,7.447,9.848,7.514,9.848,7.586v1.346c0,0.106,0.061,0.203,0.156,0.248
		c0.177,0.086,1.098,0.551,1.947,1.249c0.106,0.088,0.168,0.218,0.168,0.359v0.957c0,0.119,0.095,0.214,0.214,0.214
		c0.119,0,0.214-0.095,0.214-0.214v-0.957C12.546,10.52,12.427,10.269,12.222,10.099z"/>
	<g display="inline">
		<g>
			<g>
				<path fill="#FFFFFF" d="M8.112,13.156H8.1c-0.068-0.004-0.101-0.009-0.142-0.015c-0.085-0.014-0.218-0.05-0.398-0.108
					c-0.183-0.06-0.392-0.164-0.641-0.317c-0.242-0.151-0.511-0.361-0.8-0.627c-0.29-0.266-0.591-0.618-0.895-1.047
					c-0.24-0.328-0.438-0.646-0.587-0.941C4.489,9.807,4.374,9.535,4.293,9.292c-0.08-0.241-0.136-0.464-0.166-0.663
					C4.099,8.437,4.084,8.268,4.085,8.125c0.001-0.147,0.011-0.261,0.03-0.346l0.023-0.108c0.03-0.102,0.067-0.175,0.116-0.245
					c0.053-0.075,0.114-0.134,0.18-0.177L5.367,6.58c0.085-0.061,0.179-0.092,0.276-0.092L5.72,6.494
					C5.813,6.508,5.894,6.55,5.96,6.619c0.052,0.055,0.093,0.118,0.123,0.187L6.534,8.16c0.041,0.11,0.038,0.232-0.008,0.35
					c-0.042,0.108-0.11,0.197-0.203,0.263L6.014,8.995C6.021,9.036,6.038,9.11,6.065,9.194C6.096,9.293,6.148,9.415,6.221,9.56
					c0.073,0.146,0.186,0.323,0.334,0.526c0.146,0.208,0.278,0.373,0.396,0.494c0.115,0.116,0.214,0.206,0.295,0.267
					c0.098,0.071,0.143,0.093,0.158,0.099l0.024,0.009l0.355-0.27c0.136-0.087,0.267-0.111,0.416-0.09
					c0.081,0.014,0.147,0.037,0.203,0.071l0.008,0.001l0.046,0.035l1.059,0.886c0.148,0.13,0.184,0.27,0.187,0.365
					c-0.005,0.168-0.075,0.3-0.205,0.393l-0.94,0.67c-0.054,0.043-0.13,0.081-0.217,0.106C8.262,13.146,8.185,13.156,8.112,13.156z
					 M4.514,7.753c-0.001,0.007-0.01,0.048-0.023,0.11c-0.009,0.04-0.02,0.118-0.021,0.264c0,0.122,0.012,0.271,0.038,0.444
					c0.027,0.177,0.077,0.378,0.15,0.599C4.734,9.396,4.842,9.65,4.981,9.927c0.14,0.276,0.327,0.576,0.556,0.891
					c0.29,0.408,0.572,0.74,0.842,0.988c0.271,0.248,0.521,0.444,0.743,0.583c0.218,0.135,0.406,0.229,0.557,0.277
					c0.155,0.051,0.268,0.083,0.338,0.095c0.022,0.004,0.042,0.007,0.058,0.008l0.075,0.009l-0.038-0.006
					c0.037,0,0.077-0.007,0.119-0.019c0.039-0.012,0.071-0.027,0.094-0.045l0.948-0.676c0.035-0.025,0.043-0.048,0.044-0.078l0,0
					c-0.001,0-0.003-0.03-0.053-0.073l-1.063-0.886c0,0-0.015-0.012-0.065-0.02c-0.071-0.007-0.104,0.006-0.136,0.027l-0.432,0.316
					l-0.09,0.021c-0.024,0.004-0.043,0.005-0.059,0.005L7.365,11.34l-0.096-0.034c-0.068-0.026-0.148-0.073-0.251-0.149
					c-0.098-0.072-0.212-0.175-0.341-0.307c-0.134-0.136-0.28-0.317-0.435-0.539c-0.159-0.217-0.283-0.413-0.366-0.578
					C5.794,9.569,5.734,9.428,5.698,9.311c-0.043-0.133-0.067-0.256-0.07-0.361L5.627,8.898l0.041-0.089
					c0.02-0.041,0.05-0.077,0.087-0.102l0.344-0.248c0.031-0.022,0.053-0.051,0.068-0.09C6.179,8.338,6.18,8.314,6.171,8.287
					L5.722,6.942C5.716,6.929,5.7,6.905,5.68,6.884c-0.046-0.012-0.063-0.01-0.088,0.009L4.651,7.568
					C4.618,7.589,4.594,7.614,4.57,7.648C4.545,7.684,4.526,7.719,4.514,7.753z"/>
			</g>
		</g>
	</g>
</g>
<g id="Group_call" display="none">
	<circle display="inline" fill="#F26538" cx="8.481" cy="8.481" r="8.481"/>
	<path display="inline" fill="#FFFFFF" d="M11.007,9.917c-0.696-0.573-1.446-0.974-1.714-1.111V7.794
		C9.449,7.653,9.54,7.453,9.54,7.24V6.009c0-0.715-0.582-1.298-1.297-1.298H7.978c-0.715,0-1.298,0.582-1.298,1.298V7.24
		c0,0.213,0.091,0.413,0.247,0.554v1.012C6.798,8.872,6.55,9.008,6.254,9.19c0.044,0.121,0.16,0.198,0.209,0.316
		C6.841,9.272,7.081,9.153,7.168,9.11c0.084-0.04,0.137-0.126,0.137-0.219V7.704c0-0.063-0.032-0.122-0.084-0.156
		C7.118,7.479,7.058,7.365,7.058,7.244V6.013c0-0.508,0.413-0.921,0.921-0.921h0.265c0.508,0,0.921,0.413,0.921,0.921v1.231
		c0,0.122-0.061,0.236-0.164,0.304C8.947,7.582,8.916,7.641,8.916,7.704v1.185c0,0.093,0.053,0.179,0.137,0.219
		c0.156,0.076,0.966,0.485,1.714,1.1c0.093,0.078,0.148,0.192,0.148,0.316v0.843c0,0.105,0.084,0.188,0.188,0.188
		c0.105,0,0.188-0.084,0.188-0.188v-0.843C11.293,10.288,11.188,10.067,11.007,9.917z"/>
	<path display="inline" fill="#FFFFFF" d="M12.506,9.746c-0.696-0.573-1.446-0.974-1.714-1.111V8.012
		c0.156-0.141,0.247-0.341,0.247-0.554V6.228c0-0.715-0.582-1.297-1.297-1.297H9.477c-0.139,0-0.266,0.036-0.389,0.082
		c0.074,0.11,0.133,0.224,0.172,0.345c0.07-0.022,0.14-0.047,0.217-0.047h0.264c0.508,0,0.921,0.413,0.921,0.921v1.231
		c0,0.122-0.061,0.236-0.164,0.304c-0.053,0.034-0.084,0.093-0.084,0.156v0.796c0,0.093,0.053,0.179,0.137,0.219
		c0.156,0.076,0.966,0.485,1.714,1.1c0.093,0.078,0.148,0.192,0.148,0.316v0.386c0,0.105,0.084,0.188,0.188,0.188
		c0.105,0,0.188-0.084,0.188-0.188v-0.386C12.792,10.117,12.687,9.897,12.506,9.746z"/>
	<g display="inline">
		<g>
			<g>
				<path fill="none" stroke="#FFFFFF" stroke-width="0.3394" stroke-miterlimit="10" d="M8.479,11.556
					c-0.003,0.084-0.04,0.151-0.11,0.202l-0.828,0.589c-0.038,0.03-0.085,0.054-0.141,0.07c-0.056,0.016-0.109,0.024-0.16,0.023
					c-0.004-0.001-0.014-0.001-0.033-0.003c-0.018-0.001-0.041-0.004-0.07-0.009c-0.068-0.011-0.175-0.041-0.323-0.089
					c-0.148-0.048-0.324-0.136-0.528-0.263c-0.204-0.127-0.431-0.304-0.679-0.532c-0.248-0.228-0.503-0.526-0.764-0.895
					c-0.209-0.287-0.377-0.556-0.504-0.808C4.213,9.59,4.115,9.36,4.047,9.153C3.979,8.946,3.932,8.761,3.908,8.598
					C3.884,8.434,3.872,8.295,3.872,8.18S3.88,7.975,3.895,7.911c0.014-0.064,0.022-0.099,0.023-0.106
					c0.015-0.049,0.04-0.097,0.073-0.144C4.024,7.613,4.061,7.576,4.102,7.55l0.828-0.594C4.989,6.914,5.05,6.899,5.114,6.909
					c0.046,0.008,0.085,0.028,0.116,0.06S5.287,7.04,5.305,7.084l0.393,1.18C5.721,8.326,5.72,8.39,5.695,8.455
					C5.669,8.521,5.629,8.573,5.575,8.611L5.27,8.83C5.262,8.836,5.254,8.847,5.246,8.862C5.238,8.877,5.233,8.89,5.231,8.901
					c0.002,0.077,0.02,0.168,0.054,0.273c0.029,0.093,0.077,0.208,0.146,0.345c0.069,0.138,0.172,0.3,0.31,0.488
					c0.133,0.19,0.255,0.341,0.365,0.453c0.11,0.111,0.203,0.195,0.28,0.252c0.077,0.057,0.137,0.093,0.18,0.109l0.065,0.024
					c0.007,0.001,0.019,0,0.036-0.002c0.017-0.003,0.03-0.007,0.038-0.013l0.356-0.26c0.074-0.046,0.153-0.063,0.239-0.049
					c0.061,0.01,0.107,0.029,0.139,0.056l0.005,0.001l0.932,0.78C8.442,11.416,8.477,11.482,8.479,11.556z"/>
			</g>
		</g>
	</g>
</g>
<g id="negetive" display="none">
	<circle display="inline" fill="#EF9D52" cx="8.481" cy="8.481" r="8.481"/>
	
		<line display="inline" fill="none" stroke="#FFFFFF" stroke-width="1.4664" stroke-miterlimit="10" x1="3.773" y1="8.5" x2="13.19" y2="8.5"/>
</g>
<g id="Layer_13" display="none">
	<circle display="inline" fill="#F26538" cx="8.481" cy="8.481" r="8.481"/>
	
		<line display="inline" fill="none" stroke="#FFFFFF" stroke-width="1.4664" stroke-miterlimit="10" x1="3.773" y1="8.5" x2="13.19" y2="8.5"/>
	
		<line display="inline" fill="none" stroke="#FFFFFF" stroke-width="1.4664" stroke-miterlimit="10" x1="8.481" y1="3.792" x2="8.481" y2="13.208"/>
</g>
<g id="Redile_voice_call" display="none">
	<g display="inline">
		<g enable-background="new    ">
			<path fill="#F26538" d="M8.514,1.093c4.09,0,7.418,3.328,7.418,7.418s-3.328,7.418-7.418,7.418c-1.857,0-3.634-0.69-5.004-1.942
				l-0.668,0.731c1.495,1.367,3.486,2.201,5.672,2.201c4.644,0,8.408-3.764,8.408-8.408s-3.764-8.408-8.408-8.408l0,0
				c-4.644,0-8.408,3.764-8.408,8.408h0.99C1.096,4.42,4.424,1.093,8.514,1.093"/>
		</g>
		<polygon fill="#F26538" points="0.372,9.283 3.353,7.227 -1.688,6.295 		"/>
		<g>
			<g>
				<path fill="#F26538" d="M12.539,10.731c0.016,0.125-0.022,0.233-0.114,0.325l-1.082,1.074c-0.049,0.054-0.113,0.1-0.191,0.138
					c-0.079,0.038-0.156,0.062-0.232,0.073c-0.005,0-0.022,0.001-0.049,0.004c-0.027,0.003-0.062,0.004-0.106,0.004
					c-0.103,0-0.27-0.018-0.5-0.053c-0.231-0.035-0.513-0.122-0.846-0.26c-0.334-0.138-0.712-0.346-1.135-0.622
					c-0.423-0.277-0.873-0.656-1.351-1.139C6.554,9.902,6.239,9.544,5.99,9.202C5.74,8.86,5.539,8.544,5.387,8.254
					c-0.152-0.29-0.266-0.553-0.342-0.789C4.97,7.229,4.918,7.025,4.891,6.854S4.853,6.549,4.859,6.452
					C4.864,6.354,4.867,6.3,4.867,6.289C4.878,6.213,4.902,6.136,4.94,6.057c0.038-0.079,0.084-0.142,0.138-0.191L6.16,4.784
					C6.236,4.708,6.323,4.67,6.421,4.67c0.071,0,0.133,0.02,0.187,0.061s0.1,0.091,0.138,0.151l0.871,1.652
					C7.666,6.62,7.679,6.715,7.657,6.818c-0.022,0.103-0.068,0.19-0.138,0.26L7.12,7.477C7.11,7.488,7.1,7.505,7.092,7.53
					C7.084,7.554,7.08,7.574,7.08,7.591C7.101,7.705,7.15,7.835,7.226,7.981c0.065,0.13,0.165,0.289,0.301,0.476
					C7.663,8.644,7.855,8.86,8.105,9.104c0.244,0.25,0.461,0.443,0.651,0.582c0.19,0.138,0.349,0.24,0.476,0.305
					c0.127,0.065,0.225,0.104,0.293,0.118l0.102,0.02c0.011,0,0.029-0.004,0.053-0.012c0.024-0.008,0.042-0.018,0.053-0.028
					l0.464-0.472c0.098-0.087,0.212-0.13,0.342-0.13c0.092,0,0.165,0.016,0.22,0.049h0.008l1.57,0.928
					C12.45,10.533,12.518,10.623,12.539,10.731z"/>
			</g>
		</g>
	</g>
</g>
<g id="Re-Video" display="none">
	<g display="inline">
		<g enable-background="new    ">
			<path fill="#F26538" d="M8.514,1.093c4.09,0,7.418,3.328,7.418,7.418s-3.328,7.418-7.418,7.418c-1.857,0-3.634-0.69-5.004-1.942
				l-0.668,0.731c1.495,1.367,3.486,2.201,5.672,2.201c4.644,0,8.408-3.764,8.408-8.408s-3.764-8.408-8.408-8.408l0,0
				c-4.644,0-8.408,3.764-8.408,8.408h0.99C1.096,4.42,4.424,1.093,8.514,1.093"/>
		</g>
		<polygon fill="#F26538" points="0.372,9.283 3.353,7.227 -1.688,6.295 		"/>
	</g>
	<g display="inline">
		<g>
			<path fill="#F26538" d="M5.303,10.54l-0.01-3.306c0,0-0.003-0.517,0.468-0.517h3.268c0.371,0,0.696,0.107,0.964,0.317
				c0.271,0.213,0.421,0.485,0.434,0.792l1.146-0.895c0.127-0.106,0.325-0.147,0.519-0.088c0.219,0.074,0.344,0.237,0.344,0.439
				v2.997c0,0.202-0.126,0.365-0.336,0.437c-0.229,0.068-0.398,0.021-0.533-0.091l-1.139-0.891
				c-0.013,0.307-0.162,0.581-0.434,0.794c-0.269,0.21-0.593,0.316-0.964,0.316H5.762C5.762,10.844,5.303,10.968,5.303,10.54z"/>
		</g>
	</g>
</g>
<g id="Miscall_-_Audio" display="none">
	<g display="inline">
		<g>
			<path fill="#F26538" d="M11.016,14.694c0.023,0.179-0.031,0.334-0.163,0.467l-1.552,1.54c-0.07,0.078-0.161,0.144-0.274,0.198
				c-0.113,0.054-0.224,0.089-0.332,0.105c-0.008,0-0.031,0.002-0.07,0.006c-0.039,0.004-0.089,0.006-0.152,0.006
				c-0.148,0-0.387-0.025-0.718-0.076c-0.331-0.051-0.735-0.175-1.213-0.373c-0.478-0.198-1.021-0.496-1.628-0.893
				c-0.607-0.397-1.252-0.941-1.937-1.633c-0.544-0.537-0.996-1.05-1.353-1.54c-0.358-0.49-0.646-0.943-0.863-1.359
				c-0.218-0.416-0.381-0.793-0.49-1.132S0.088,9.38,0.049,9.135C0.01,8.89-0.006,8.697,0.002,8.557s0.012-0.218,0.012-0.233
				c0.016-0.109,0.051-0.22,0.105-0.333c0.054-0.113,0.121-0.204,0.198-0.274l1.552-1.552c0.109-0.109,0.233-0.163,0.373-0.163
				c0.101,0,0.191,0.029,0.268,0.088s0.144,0.13,0.198,0.216l1.248,2.369c0.07,0.124,0.089,0.261,0.058,0.408
				C3.984,9.23,3.918,9.354,3.817,9.455l-0.572,0.572c-0.016,0.016-0.029,0.041-0.041,0.076c-0.012,0.035-0.018,0.064-0.018,0.088
				c0.031,0.163,0.101,0.35,0.21,0.56c0.093,0.187,0.237,0.414,0.432,0.683c0.194,0.268,0.471,0.578,0.828,0.928
				c0.35,0.358,0.661,0.636,0.933,0.834c0.272,0.198,0.5,0.344,0.683,0.438c0.183,0.093,0.323,0.15,0.42,0.169l0.146,0.029
				c0.016,0,0.041-0.006,0.076-0.018c0.035-0.012,0.06-0.025,0.076-0.041l0.665-0.677c0.14-0.124,0.303-0.187,0.49-0.187
				c0.132,0,0.237,0.023,0.315,0.07h0.012l2.252,1.33C10.888,14.41,10.985,14.539,11.016,14.694z"/>
		</g>
	</g>
	<g display="inline">
		<path fill="#F26538" d="M16.963,9.409L8.364,9.406L8.361,3.073l2.601,2.601l1.133-1.133L7.572,0.018L3.047,4.542L4.18,5.675
			l2.601-2.601l-0.003,7.918H16.96L16.963,9.409z M16.963,9.409"/>
	</g>
</g>
<g id="Recived" display="none">
	<g display="inline">
		<g>
			<path fill="#F26538" d="M11.016,14.694c0.023,0.179-0.031,0.334-0.163,0.467l-1.552,1.54c-0.07,0.078-0.161,0.144-0.274,0.198
				c-0.113,0.054-0.224,0.089-0.332,0.105c-0.008,0-0.031,0.002-0.07,0.006c-0.039,0.004-0.089,0.006-0.152,0.006
				c-0.148,0-0.387-0.025-0.718-0.076c-0.331-0.051-0.735-0.175-1.213-0.373c-0.478-0.198-1.021-0.496-1.628-0.893
				c-0.607-0.397-1.252-0.941-1.937-1.633c-0.544-0.537-0.996-1.05-1.353-1.54c-0.358-0.49-0.646-0.943-0.863-1.359
				c-0.218-0.416-0.381-0.793-0.49-1.132S0.088,9.38,0.049,9.135C0.01,8.89-0.006,8.697,0.002,8.557s0.012-0.218,0.012-0.233
				c0.016-0.109,0.051-0.22,0.105-0.333c0.054-0.113,0.121-0.204,0.198-0.274l1.552-1.552c0.109-0.109,0.233-0.163,0.373-0.163
				c0.101,0,0.191,0.029,0.268,0.088s0.144,0.13,0.198,0.216l1.248,2.369c0.07,0.124,0.089,0.261,0.058,0.408
				C3.984,9.23,3.918,9.354,3.817,9.455l-0.572,0.572c-0.016,0.016-0.029,0.041-0.041,0.076c-0.012,0.035-0.018,0.064-0.018,0.088
				c0.031,0.163,0.101,0.35,0.21,0.56c0.093,0.187,0.237,0.414,0.432,0.683c0.194,0.268,0.471,0.578,0.828,0.928
				c0.35,0.358,0.661,0.636,0.933,0.834c0.272,0.198,0.5,0.344,0.683,0.438c0.183,0.093,0.323,0.15,0.42,0.169l0.146,0.029
				c0.016,0,0.041-0.006,0.076-0.018c0.035-0.012,0.06-0.025,0.076-0.041l0.665-0.677c0.14-0.124,0.303-0.187,0.49-0.187
				c0.132,0,0.237,0.023,0.315,0.07h0.012l2.252,1.33C10.888,14.41,10.985,14.539,11.016,14.694z"/>
		</g>
	</g>
	<g display="inline">
		<path fill="#F26538" d="M13.328,9.725c0.292,0,0.524,0.232,0.524,0.524c0,0.292-0.232,0.53-0.524,0.53H6.71
			c-0.292,0-0.531-0.239-0.531-0.53V3.637c0-0.292,0.239-0.531,0.531-0.531c0.289,0,0.53,0.239,0.53,0.531v5.342l8.821-8.827
			c0.209-0.202,0.537-0.202,0.746,0c0.209,0.209,0.209,0.544,0,0.746L7.977,9.725H13.328z M13.328,9.725"/>
	</g>
</g>
<g id="Outgoing" display="none">
	<g display="inline">
		<g>
			<path fill="#F26538" d="M11.016,14.694c0.023,0.179-0.031,0.334-0.163,0.467l-1.552,1.54c-0.07,0.078-0.161,0.144-0.274,0.198
				c-0.113,0.054-0.224,0.089-0.332,0.105c-0.008,0-0.031,0.002-0.07,0.006c-0.039,0.004-0.089,0.006-0.152,0.006
				c-0.148,0-0.387-0.025-0.718-0.076c-0.331-0.051-0.735-0.175-1.213-0.373c-0.478-0.198-1.021-0.496-1.628-0.893
				c-0.607-0.397-1.252-0.941-1.937-1.633c-0.544-0.537-0.996-1.05-1.353-1.54c-0.358-0.49-0.646-0.943-0.863-1.359
				c-0.218-0.416-0.381-0.793-0.49-1.132S0.088,9.38,0.049,9.135C0.01,8.89-0.006,8.697,0.002,8.557s0.012-0.218,0.012-0.233
				c0.016-0.109,0.051-0.22,0.105-0.333c0.054-0.113,0.121-0.204,0.198-0.274l1.552-1.552c0.109-0.109,0.233-0.163,0.373-0.163
				c0.101,0,0.191,0.029,0.268,0.088s0.144,0.13,0.198,0.216l1.248,2.369c0.07,0.124,0.089,0.261,0.058,0.408
				C3.984,9.23,3.918,9.354,3.817,9.455l-0.572,0.572c-0.016,0.016-0.029,0.041-0.041,0.076c-0.012,0.035-0.018,0.064-0.018,0.088
				c0.031,0.163,0.101,0.35,0.21,0.56c0.093,0.187,0.237,0.414,0.432,0.683c0.194,0.268,0.471,0.578,0.828,0.928
				c0.35,0.358,0.661,0.636,0.933,0.834c0.272,0.198,0.5,0.344,0.683,0.438c0.183,0.093,0.323,0.15,0.42,0.169l0.146,0.029
				c0.016,0,0.041-0.006,0.076-0.018c0.035-0.012,0.06-0.025,0.076-0.041l0.665-0.677c0.14-0.124,0.303-0.187,0.49-0.187
				c0.132,0,0.237,0.023,0.315,0.07h0.012l2.252,1.33C10.888,14.41,10.985,14.539,11.016,14.694z"/>
		</g>
	</g>
	<g display="inline">
		<path fill="#F26538" d="M9.814,1.054c-0.292,0-0.524-0.232-0.524-0.524C9.291,0.239,9.522,0,9.814,0l6.618,0
			c0.292,0,0.531,0.239,0.531,0.53v6.612c0,0.292-0.239,0.531-0.531,0.531c-0.289,0-0.53-0.239-0.53-0.531V1.8l-8.821,8.827
			c-0.209,0.202-0.537,0.202-0.746,0c-0.209-0.209-0.209-0.544,0-0.746l8.829-8.828H9.814z M9.814,1.054"/>
	</g>
</g>
<g id="Out-Video" display="none">
	<g display="inline">
		<path fill="#F26538" d="M9.814,1.054c-0.292,0-0.524-0.232-0.524-0.524C9.291,0.239,9.522,0,9.814,0l6.618,0
			c0.292,0,0.531,0.239,0.531,0.53v6.612c0,0.292-0.239,0.531-0.531,0.531c-0.289,0-0.53-0.239-0.53-0.531V1.8l-6.98,6.987
			c-0.209,0.202-0.537,0.202-0.746,0c-0.209-0.209-0.209-0.544,0-0.746l6.989-6.987H9.814z M9.814,1.054"/>
	</g>
	<g display="inline">
		<g>
			<path fill="#F26538" d="M0.016,16.457L0,10.953c0,0-0.006-0.86,0.78-0.86h5.441c0.618,0,1.158,0.178,1.606,0.528
				c0.452,0.354,0.7,0.808,0.722,1.318l1.908-1.49c0.211-0.177,0.542-0.246,0.864-0.147c0.364,0.123,0.573,0.395,0.573,0.731v4.99
				c0,0.336-0.209,0.608-0.56,0.727c-0.381,0.114-0.663,0.035-0.888-0.152l-1.897-1.484c-0.021,0.512-0.27,0.968-0.722,1.322
				c-0.447,0.35-0.987,0.527-1.606,0.527H0.78C0.78,16.963,0.016,17.169,0.016,16.457z"/>
		</g>
	</g>
</g>
<g id="Rec-Video" display="none">
	<g display="inline">
		<path fill="#F26538" d="M15.078,7.975c0.292,0,0.524,0.232,0.524,0.524c0,0.292-0.232,0.53-0.524,0.53H8.46
			c-0.292,0-0.531-0.239-0.531-0.53V1.887c0-0.292,0.239-0.531,0.531-0.531c0.289,0,0.53,0.239,0.53,0.531v5.342l7.07-7.077
			c0.209-0.202,0.537-0.202,0.746,0c0.209,0.209,0.209,0.544,0,0.746L9.727,7.975H15.078z M15.078,7.975"/>
	</g>
	<g display="inline">
		<g>
			<path fill="#F26538" d="M0.016,16.457L0,10.953c0,0-0.006-0.86,0.78-0.86h5.441c0.618,0,1.158,0.178,1.606,0.528
				c0.452,0.354,0.7,0.808,0.722,1.318l1.908-1.49c0.211-0.177,0.542-0.246,0.864-0.147c0.364,0.123,0.573,0.395,0.573,0.731v4.99
				c0,0.336-0.209,0.608-0.56,0.727c-0.381,0.114-0.663,0.035-0.888-0.152l-1.897-1.484c-0.021,0.512-0.27,0.968-0.722,1.322
				c-0.447,0.35-0.987,0.527-1.606,0.527H0.78C0.78,16.963,0.016,17.169,0.016,16.457z"/>
		</g>
	</g>
</g>
<g id="Layer_22" display="none">
	<g display="inline">
		<g>
			<path fill="#F26538" d="M0.016,16.457L0,10.953c0,0-0.006-0.86,0.78-0.86h5.441c0.618,0,1.158,0.178,1.606,0.528
				c0.452,0.354,0.7,0.808,0.722,1.318l1.908-1.49c0.211-0.177,0.542-0.246,0.864-0.147c0.364,0.123,0.573,0.395,0.573,0.731v4.99
				c0,0.336-0.209,0.608-0.56,0.727c-0.381,0.114-0.663,0.035-0.888-0.152l-1.897-1.484c-0.021,0.512-0.27,0.968-0.722,1.322
				c-0.447,0.35-0.987,0.527-1.606,0.527H0.78C0.78,16.963,0.016,17.169,0.016,16.457z"/>
		</g>
	</g>
	<g display="inline">
		<path fill="#F26538" d="M16.963,7.391l-6.598-0.003l-0.003-4.333l2.601,2.601l1.133-1.133L9.572,0L5.047,4.524L6.18,5.657
			l2.601-2.601L8.779,8.974h8.181L16.963,7.391z M16.963,7.391"/>
	</g>
</g>
<g id="Invite_to_call" display="none">
	<circle display="inline" fill="#F26538" cx="8.408" cy="8.458" r="8.481"/>
	<g display="inline">
		<g>
			<path fill="#FFFFFF" d="M9.376,11.455H6.041v-0.619h3.335c0.289,0,0.526-0.076,0.725-0.232c0.179-0.14,0.262-0.29,0.262-0.474
				v-1.22l2.304,1.804V6.236l-2.304,1.765V6.786c0-0.115-0.027-0.29-0.262-0.474C9.902,6.156,9.665,6.08,9.376,6.08H6.427V5.461
				h2.949c0.426,0,0.798,0.122,1.107,0.364c0.311,0.244,0.483,0.557,0.498,0.909l1.315-1.027c0.146-0.122,0.373-0.169,0.595-0.102
				c0.251,0.085,0.395,0.272,0.395,0.504v4.698c0,0.232-0.144,0.419-0.386,0.501c-0.262,0.079-0.457,0.024-0.612-0.105l-1.307-1.023
				c-0.015,0.353-0.186,0.667-0.498,0.911C10.175,11.333,9.803,11.455,9.376,11.455z"/>
		</g>
		<rect x="4.912" y="9.606" fill="#FFFFFF" width="3.684" height="0.619"/>
		<rect x="5.423" y="6.889" fill="#FFFFFF" width="1.944" height="0.619"/>
		<rect x="3.529" y="8.293" fill="#FFFFFF" width="3.21" height="0.619"/>
		<rect x="4.967" y="10.837" fill="#FFFFFF" width="0.637" height="0.619"/>
		<rect x="7.87" y="6.889" fill="#FFFFFF" width="0.945" height="0.619"/>
	</g>
</g>
<g id="Connect" display="none">
	<path display="inline" fill="#B2B2B2" d="M12.786,16.933c-0.242,0-0.604-0.038-1.105-0.115c-0.517-0.079-1.125-0.266-1.859-0.57
		c-0.713-0.294-1.533-0.743-2.436-1.333c-0.903-0.592-1.875-1.41-2.886-2.433c-0.804-0.793-1.481-1.564-2.01-2.289
		C1.959,9.467,1.526,8.784,1.2,8.163C0.874,7.54,0.625,6.964,0.461,6.452c-0.165-0.51-0.278-0.959-0.337-1.334
		C0.062,4.73,0.038,4.427,0.051,4.192c0.01-0.185,0.016-0.292,0.017-0.321C0.099,3.62,0.163,3.418,0.26,3.216
		c0.101-0.209,0.229-0.385,0.382-0.523l2.245-2.245c0.409-0.41,1.035-0.466,1.458-0.147c0.15,0.112,0.281,0.254,0.386,0.419
		l1.834,3.477C6.709,4.456,6.752,4.75,6.687,5.062C6.626,5.353,6.492,5.604,6.289,5.806l-0.79,0.79
		c0.044,0.183,0.129,0.394,0.25,0.628c0.129,0.257,0.33,0.573,0.598,0.943c0.269,0.371,0.66,0.809,1.162,1.299
		c0.499,0.511,0.939,0.904,1.315,1.178c0.377,0.275,0.694,0.479,0.94,0.604c0.305,0.155,0.45,0.198,0.509,0.21l0.107,0.021
		l0.931-0.938c0.469-0.418,1.125-0.475,1.552-0.29h0.016l0.11,0.056l3.279,1.938c0.341,0.211,0.545,0.487,0.613,0.826
		c0.056,0.41-0.066,0.761-0.347,1.042l-2.261,2.244c-0.12,0.134-0.296,0.263-0.507,0.364c-0.2,0.097-0.403,0.161-0.602,0.189
		l-0.125,0.011C12.975,16.929,12.89,16.933,12.786,16.933z M0.865,3.925c0.002,0-0.004,0.117-0.015,0.311
		c-0.01,0.175,0.012,0.43,0.063,0.756C0.967,5.327,1.07,5.735,1.222,6.207c0.15,0.469,0.381,1.002,0.687,1.585
		c0.307,0.586,0.719,1.235,1.226,1.93c0.503,0.689,1.152,1.428,1.928,2.193c0.976,0.986,1.903,1.77,2.759,2.329
		c0.861,0.563,1.637,0.988,2.304,1.264c0.665,0.276,1.229,0.451,1.675,0.519c0.89,0.139,1.04,0.111,1.171,0.1
		c0.072-0.008,0.12-0.011,0.137-0.011c0.061-0.013,0.184-0.052,0.31-0.113c0.117-0.056,0.21-0.122,0.275-0.194l2.275-2.261
		c0.104-0.104,0.142-0.207,0.124-0.344c-0.011-0.046-0.052-0.156-0.239-0.272l-3.289-1.934c-0.049-0.028-0.45-0.099-0.704,0.126
		l-0.948,0.966c-0.065,0.068-0.155,0.121-0.271,0.159c-0.087,0.03-0.163,0.046-0.234,0.046l-0.29-0.05
		c-0.18-0.036-0.413-0.128-0.716-0.282c-0.285-0.146-0.637-0.371-1.048-0.671c-0.411-0.299-0.885-0.723-1.41-1.259
		C6.416,9.517,5.995,9.045,5.7,8.637c-0.294-0.405-0.517-0.758-0.663-1.05C4.865,7.255,4.749,6.944,4.696,6.668
		C4.689,6.515,4.704,6.432,4.735,6.339c0.037-0.11,0.087-0.196,0.153-0.264L5.724,5.24c0.092-0.092,0.151-0.204,0.18-0.343
		c0.025-0.12,0.012-0.221-0.042-0.316L4.038,1.122c-0.037-0.057-0.1-0.125-0.174-0.181C3.773,0.872,3.659,0.808,3.452,1.014
		l-2.26,2.26c-0.09,0.082-0.156,0.174-0.211,0.29c-0.061,0.126-0.1,0.248-0.117,0.363C0.865,3.926,0.865,3.925,0.865,3.925z"/>
</g>
<g id="Home" display="none">
	<path display="inline" fill="#EFDCD7" d="M5.8,16.843H2.911c-0.654,0-1.186-0.531-1.186-1.185V9.234
		C1.279,9.566,0.572,9.49,0.164,9.066l-0.186-0.194c-0.22-0.228-0.336-0.527-0.327-0.843c0.01-0.316,0.146-0.608,0.381-0.823
		l7.412-6.797C7.903-0.009,8.687-0.016,9.152,0.39l7.388,6.465c0.239,0.209,0.381,0.499,0.399,0.813
		c0.018,0.316-0.09,0.619-0.304,0.855l-0.209,0.23c-0.332,0.366-0.772,0.554-1.128,0.473v6.432c0,0.653-0.531,1.184-1.186,1.184
		h-3.062c-0.307,0-0.591-0.117-0.802-0.33c-0.221-0.224-0.34-0.528-0.335-0.858v-4.7H6.986v4.705
		C6.986,16.312,6.454,16.843,5.8,16.843z M2.104,8.016c0.052,0,0.105,0.011,0.154,0.033c0.136,0.061,0.224,0.196,0.224,0.345v7.264
		c0,0.236,0.192,0.429,0.429,0.429H5.8c0.236,0,0.429-0.192,0.429-0.429v-5.083c0-0.209,0.169-0.378,0.378-0.378h3.686
		c0.209,0,0.378,0.169,0.378,0.378v5.083c-0.001,0.131,0.04,0.243,0.118,0.322c0.067,0.068,0.159,0.105,0.263,0.105h3.062
		c0.236,0,0.43-0.192,0.43-0.428V8.496c0-0.148,0.087-0.283,0.222-0.345c0.136-0.061,0.295-0.038,0.406,0.061l0.342,0.3
		c0.026-0.023,0.192-0.089,0.354-0.267l0.209-0.23c0.076-0.084,0.115-0.192,0.108-0.303c-0.006-0.111-0.057-0.213-0.142-0.288
		L8.654,0.959C8.471,0.8,8.136,0.804,7.955,0.967L0.543,7.764C0.459,7.841,0.411,7.943,0.408,8.053
		C0.405,8.163,0.446,8.268,0.523,8.348L0.71,8.542c0.142,0.146,0.354,0.276,0.587,0.066l0.554-0.497
		C1.922,8.049,2.012,8.016,2.104,8.016z"/>
</g>
<g id="Notification" display="none">
	<g display="inline">
		<g>
			<g>
				<path fill="#EFDCD7" d="M15.963,5.917v7.708H1V5.917H15.963 M16.963,4.917H0v9.708h16.963V4.917L16.963,4.917z"/>
			</g>
		</g>
		<polyline fill="none" stroke="#EFDCD7" stroke-linecap="round" stroke-linejoin="round" stroke-miterlimit="10" points="
			1.129,5.616 8.213,10 16.042,5.452 		"/>
		
			<line fill="none" stroke="#EFDCD7" stroke-linecap="round" stroke-linejoin="round" stroke-miterlimit="10" x1="9.779" y1="10.789" x2="16.042" y2="13.583"/>
		
			<line fill="none" stroke="#EFDCD7" stroke-linecap="round" stroke-linejoin="round" stroke-miterlimit="10" x1="6.671" y1="10.789" x2="0.754" y2="13.583"/>
	</g>
</g>
<g id="Mute" display="none">
	<g display="inline">
		<g>
			<g>
				<polygon fill="#F26538" points="7.256,3.251 8.213,4.208 10.063,2.987 10.063,6.076 11.389,7.403 11.389,0.515 				"/>
			</g>
		</g>
		<g>
			<g>
				<polygon fill="#F26538" points="10.063,10.15 10.063,13.993 5.597,11.013 5.263,10.788 4.864,10.788 2.566,10.788 2.566,6.191 
					4.864,6.191 5.263,6.191 5.597,5.967 5.763,5.858 4.777,4.865 1.239,4.865 1.239,12.115 4.864,12.115 11.389,16.465 
					11.389,11.477 				"/>
			</g>
		</g>
		
			<rect x="7.762" y="-2.79" transform="matrix(-0.7071 0.7071 -0.7071 -0.7071 20.4898 8.4872)" fill="#F26538" width="1.45" height="22.555"/>
	</g>
</g>
<g id="Chat" display="none">
	<circle display="inline" fill="#F26538" cx="8.408" cy="8.458" r="8.481"/>
	<g display="inline">
		<path fill="#FFFFFF" d="M7.041,9.542c0,0-0.396,0-0.4,0.001C6.592,9.546,6.544,9.566,6.506,9.604l-1.189,1.189
			c0,0,0-1.054-0.001-1.059c-0.01-0.108-0.1-0.192-0.21-0.192H4.507c-0.045,0-0.082-0.037-0.082-0.082V5.865
			c0-0.045,0.037-0.082,0.082-0.082h5.992c0.045,0,0.082,0.037,0.082,0.082v1.379c0,0.116,0.094,0.211,0.211,0.211
			c0.116,0,0.211-0.094,0.211-0.211V5.865c0-0.277-0.226-0.503-0.503-0.503H4.507c-0.277,0-0.503,0.226-0.503,0.503V9.46
			c0,0.277,0.226,0.503,0.503,0.503h0.389v1.338c0,0.085,0.051,0.162,0.13,0.195c0.026,0.011,0.053,0.016,0.081,0.016
			c0.055,0,0.109-0.021,0.149-0.062l1.487-1.487h0.298c0.116,0,0.211-0.094,0.211-0.211C7.252,9.636,7.157,9.542,7.041,9.542z"/>
		<path fill="#FFFFFF" d="M12.434,7.94H8.239c-0.277,0-0.503,0.226-0.503,0.503v2.452c0,0.277,0.226,0.503,0.503,0.503h2.626
			l1.064,1.064c0.04,0.04,0.094,0.062,0.149,0.062c0.027,0,0.055-0.005,0.081-0.016c0.079-0.033,0.13-0.109,0.13-0.195v-0.915h0.145
			c0.277,0,0.503-0.226,0.503-0.503V8.443C12.937,8.165,12.711,7.94,12.434,7.94z M12.515,10.895c0,0.045-0.037,0.082-0.082,0.082
			h-0.355c-0.111,0-0.202,0.086-0.21,0.194c-0.001,0.005-0.001,0.633-0.001,0.633l-0.765-0.765
			c-0.001-0.001-0.002-0.002-0.002-0.002c-0.003-0.003-0.006-0.005-0.009-0.008c-0.037-0.033-0.086-0.052-0.139-0.052H8.239
			c-0.045,0-0.082-0.037-0.082-0.082V8.443c0-0.045,0.037-0.082,0.082-0.082h4.194c0.045,0,0.082,0.037,0.082,0.082V10.895z"/>
		<path fill="#FFFFFF" d="M10.336,9.458c-0.116,0-0.211,0.094-0.211,0.211c0,0.116,0.094,0.211,0.211,0.211
			c0.116,0,0.211-0.094,0.211-0.211S10.453,9.458,10.336,9.458z"/>
		<path fill="#FFFFFF" d="M5.585,6.756c-0.116,0-0.211,0.094-0.211,0.211c0,0.116,0.094,0.211,0.211,0.211h3.835
			c0.116,0,0.211-0.094,0.211-0.211c0-0.116-0.094-0.211-0.211-0.211H5.585z"/>
		<path fill="#FFFFFF" d="M7.041,8.149H5.585c-0.116,0-0.211,0.094-0.211,0.211c0,0.116,0.094,0.211,0.211,0.211h1.455
			c0.116,0,0.211-0.094,0.211-0.211C7.252,8.243,7.157,8.149,7.041,8.149z"/>
		<path fill="#FFFFFF" d="M9.357,9.458c-0.116,0-0.211,0.094-0.211,0.211c0,0.116,0.094,0.211,0.211,0.211
			c0.116,0,0.211-0.094,0.211-0.211S9.474,9.458,9.357,9.458z"/>
		<path fill="#FFFFFF" d="M11.315,9.458c-0.116,0-0.211,0.094-0.211,0.211c0,0.116,0.094,0.211,0.211,0.211
			c0.116,0,0.211-0.094,0.211-0.211S11.432,9.458,11.315,9.458z"/>
	</g>
</g>
<g id="video" display="none">
	<circle display="inline" fill="#F26538" cx="8.408" cy="8.458" r="8.481"/>
	<g display="inline">
		<g>
			<path fill="#FFFFFF" d="M5.06,9.989L5.052,7.178c0,0-0.003-0.44,0.398-0.44h3.416c0.316,0,0.592,0.091,0.82,0.27
				c0.231,0.181,0.358,0.413,0.369,0.674L11.03,6.92c0.108-0.091,0.277-0.125,0.441-0.075c0.186,0.063,0.293,0.202,0.293,0.373
				v2.549c0,0.172-0.107,0.311-0.286,0.371c-0.195,0.058-0.339,0.018-0.454-0.078l-0.969-0.758
				c-0.011,0.261-0.138,0.494-0.369,0.675c-0.229,0.179-0.504,0.269-0.82,0.269H5.45C5.45,10.248,5.06,10.353,5.06,9.989z"/>
		</g>
	</g>
</g>
<g id="Layer_31" display="none">
	<circle display="inline" fill="#F26538" cx="8.408" cy="8.458" r="8.481"/>
	<path display="inline" fill="#FFFFFF" d="M4.97,6.402c0.001,0-0.002,0.054-0.007,0.143C4.959,6.626,4.969,6.743,4.993,6.894
		c0.024,0.154,0.072,0.342,0.142,0.559c0.069,0.216,0.176,0.461,0.316,0.73c0.141,0.27,0.331,0.569,0.564,0.888
		c0.232,0.317,0.53,0.657,0.888,1.01c0.449,0.454,0.876,0.814,1.27,1.072c0.396,0.259,0.753,0.455,1.06,0.582
		c0.306,0.127,0.565,0.208,0.771,0.239c0.409,0.064,0.479,0.051,0.539,0.046c0.033-0.004,0.055-0.005,0.063-0.005
		c0.028-0.006,0.085-0.024,0.142-0.052c0.054-0.026,0.097-0.056,0.127-0.089l1.047-1.041c0.048-0.048,0.065-0.095,0.057-0.158
		c-0.005-0.021-0.024-0.072-0.11-0.125l-1.514-0.89c-0.022-0.013-0.207-0.045-0.324,0.058L9.595,10.16
		c-0.03,0.031-0.071,0.056-0.125,0.073c-0.04,0.014-0.075,0.021-0.108,0.021l-0.133-0.023c-0.083-0.017-0.19-0.059-0.329-0.13
		c-0.131-0.067-0.293-0.171-0.482-0.309C8.228,9.655,8.009,9.46,7.768,9.213C7.525,8.976,7.332,8.759,7.196,8.571
		C7.06,8.384,6.958,8.222,6.891,8.088c-0.08-0.153-0.133-0.296-0.157-0.423C6.73,7.594,6.737,7.556,6.752,7.513
		c0.017-0.051,0.04-0.09,0.071-0.121l0.385-0.385C7.249,6.965,7.276,6.913,7.289,6.85C7.301,6.794,7.295,6.748,7.27,6.704
		L6.431,5.112c-0.017-0.026-0.046-0.057-0.08-0.083c-0.042-0.032-0.094-0.061-0.19,0.033l-1.04,1.04
		C5.079,6.14,5.049,6.182,5.024,6.236C4.996,6.294,4.978,6.35,4.97,6.402C4.97,6.402,4.97,6.402,4.97,6.402z"/>
</g>
<g id="Layer_29">
	<path fill="#898989" d="M15.685,1.968c-1.711-1.711-4.487-1.711-6.199,0l-8.523,8.523c-1.284,1.284-1.284,3.365,0,4.65
		c1.059,1.059,2.655,1.23,3.903,0.542c0.13-0.007,0.259-0.056,0.358-0.155l8.523-8.523c0.856-0.856,0.856-2.243,0-3.099
		c-0.856-0.856-2.243-0.856-3.099,0L3.675,10.88c-0.214,0.214-0.214,0.561,0,0.775c0.214,0.214,0.561,0.214,0.775,0l6.974-6.974
		c0.429-0.428,1.122-0.428,1.55,0c0.428,0.428,0.428,1.122,0,1.549l-8.137,8.136c-0.856,0.856-2.243,0.856-3.099,0
		c-0.856-0.856-0.856-2.243,0-3.099l8.523-8.525c1.284-1.284,3.365-1.284,4.65,0c1.284,1.284,1.284,3.365,0,4.65l-7.749,7.748
		c-0.214,0.214-0.214,0.561,0,0.775c0.214,0.214,0.561,0.214,0.775,0l7.748-7.748C17.397,6.456,17.397,3.68,15.685,1.968
		L15.685,1.968z M15.685,1.968"/>
</g>
</svg>
