<?xml version="1.0" encoding="utf-8"?>
<!-- Generator: Adobe Illustrator 17.0.0, SVG Export Plug-In . SVG Version: 6.00 Build 0)  -->
<!DOCTYPE svg PUBLIC "-//W3C//DTD SVG 1.1//EN" "http://www.w3.org/Graphics/SVG/1.1/DTD/svg11.dtd">
<svg version="1.1" id="Layer_1" xmlns="http://www.w3.org/2000/svg" xmlns:xlink="http://www.w3.org/1999/xlink" x="0px" y="0px"
	 width="15px" height="15px" viewBox="0 0 15 15" enable-background="new 0 0 15 15" xml:space="preserve">
<g>
	<g>
		<path fill="#FFFFFF" d="M14.993,11.73c0.031,0.238-0.041,0.444-0.217,0.62l-2.061,2.045c-0.093,0.104-0.215,0.192-0.364,0.263
			c-0.15,0.072-0.297,0.119-0.441,0.14c-0.011,0-0.041,0.002-0.093,0.008c-0.052,0.005-0.118,0.007-0.201,0.007
			c-0.196,0-0.514-0.034-0.953-0.101c-0.439-0.067-0.976-0.233-1.611-0.496c-0.635-0.263-1.356-0.658-2.161-1.185
			c-0.806-0.527-1.663-1.249-2.572-2.169c-0.723-0.713-1.322-1.394-1.797-2.045S1.664,7.564,1.374,7.012
			C1.085,6.459,0.868,5.958,0.723,5.509c-0.145-0.45-0.243-0.837-0.294-1.162C0.377,4.021,0.357,3.766,0.366,3.58
			c0.01-0.187,0.016-0.289,0.016-0.31c0.021-0.145,0.067-0.292,0.14-0.441s0.16-0.271,0.263-0.364l2.061-2.061
			c0.145-0.145,0.31-0.217,0.496-0.217c0.134,0,0.253,0.039,0.357,0.116C3.802,0.38,3.889,0.475,3.961,0.589l1.658,3.145
			C5.712,3.899,5.738,4.08,5.697,4.277C5.655,4.473,5.567,4.638,5.433,4.772l-0.76,0.76C4.653,5.553,4.635,5.586,4.62,5.633
			S4.597,5.719,4.597,5.749c0.041,0.217,0.134,0.464,0.279,0.744C4.999,6.741,5.19,7.043,5.448,7.4
			c0.258,0.357,0.625,0.767,1.1,1.231c0.464,0.475,0.878,0.844,1.24,1.108c0.362,0.263,0.663,0.457,0.907,0.581
			c0.243,0.124,0.428,0.199,0.558,0.224l0.194,0.039c0.021,0,0.054-0.007,0.101-0.023c0.047-0.016,0.08-0.034,0.101-0.054
			l0.883-0.898c0.186-0.165,0.403-0.248,0.651-0.248c0.176,0,0.315,0.031,0.418,0.093h0.016l2.991,1.767
			C14.823,11.353,14.952,11.523,14.993,11.73z"/>
	</g>
</g>
</svg>
