<?xml version="1.0" encoding="utf-8"?>
<!-- Generator: Adobe Illustrator 17.0.0, SVG Export Plug-In . SVG Version: 6.00 Build 0)  -->
<!DOCTYPE svg PUBLIC "-//W3C//DTD SVG 1.1//EN" "http://www.w3.org/Graphics/SVG/1.1/DTD/svg11.dtd">
<svg version="1.1" id="Layer_1" xmlns="http://www.w3.org/2000/svg" xmlns:xlink="http://www.w3.org/1999/xlink" x="0px" y="0px"
	 width="17px" height="17px" viewBox="0 0 17 17" enable-background="new 0 0 17 17" xml:space="preserve">
<g>
	<path fill="#FFFFFF" d="M5.78,10.315c0,0-0.753,0.001-0.761,0.001c-0.093,0.006-0.185,0.045-0.256,0.116l-2.263,2.263
		c0,0-0.001-2.005-0.002-2.016c-0.018-0.205-0.19-0.365-0.399-0.365h-1.14c-0.086,0-0.155-0.07-0.155-0.155V3.318
		c0-0.086,0.07-0.155,0.155-0.155h11.404c0.086,0,0.155,0.07,0.155,0.155v2.625c0,0.221,0.18,0.401,0.401,0.401
		s0.401-0.18,0.401-0.401V3.318c0-0.528-0.429-0.957-0.957-0.957H0.957C0.429,2.361,0,2.791,0,3.318v6.842
		c0,0.528,0.429,0.957,0.957,0.957h0.739v2.547c0,0.162,0.098,0.308,0.248,0.371c0.05,0.021,0.102,0.031,0.153,0.031
		c0.104,0,0.207-0.041,0.284-0.117l2.831-2.831H5.78c0.221,0,0.401-0.18,0.401-0.401C6.181,10.495,6.001,10.315,5.78,10.315z"/>
	<path fill="#FFFFFF" d="M16.043,7.266H8.06c-0.528,0-0.957,0.429-0.957,0.957v4.667c0,0.528,0.429,0.957,0.957,0.957h4.998
		l2.025,2.025c0.077,0.077,0.179,0.117,0.284,0.117c0.052,0,0.104-0.01,0.153-0.031c0.15-0.062,0.248-0.208,0.248-0.371v-1.741
		h0.276c0.528,0,0.957-0.429,0.957-0.957V8.224C17,7.696,16.571,7.266,16.043,7.266z M16.198,12.891c0,0.086-0.07,0.155-0.155,0.155
		h-0.677c-0.211,0-0.384,0.163-0.399,0.37c-0.001,0.009-0.002,1.205-0.002,1.205l-1.456-1.456c-0.002-0.002-0.003-0.003-0.005-0.004
		c-0.006-0.006-0.011-0.01-0.016-0.015c-0.071-0.062-0.163-0.1-0.264-0.1H8.06c-0.086,0-0.155-0.07-0.155-0.155V8.224
		c0-0.086,0.07-0.155,0.155-0.155h7.983c0.086,0,0.155,0.07,0.155,0.155V12.891z"/>
	<path fill="#FFFFFF" d="M12.052,10.156c-0.221,0-0.401,0.18-0.401,0.401s0.18,0.401,0.401,0.401c0.221,0,0.401-0.18,0.401-0.401
		C12.453,10.336,12.273,10.156,12.052,10.156z"/>
	<path fill="#FFFFFF" d="M3.01,5.012c-0.221,0-0.401,0.18-0.401,0.401c0,0.221,0.18,0.401,0.401,0.401h7.299
		c0.221,0,0.401-0.18,0.401-0.401s-0.18-0.401-0.401-0.401H3.01z"/>
	<path fill="#FFFFFF" d="M5.78,7.664H3.01c-0.221,0-0.401,0.18-0.401,0.401c0,0.221,0.18,0.401,0.401,0.401h2.77
		c0.221,0,0.401-0.18,0.401-0.401C6.181,7.843,6.001,7.664,5.78,7.664z"/>
	<path fill="#FFFFFF" d="M10.188,10.156c-0.221,0-0.401,0.18-0.401,0.401s0.18,0.401,0.401,0.401c0.221,0,0.401-0.18,0.401-0.401
		C10.589,10.336,10.409,10.156,10.188,10.156z"/>
	<path fill="#FFFFFF" d="M13.915,10.156c-0.221,0-0.401,0.18-0.401,0.401s0.18,0.401,0.401,0.401c0.221,0,0.401-0.18,0.401-0.401
		C14.316,10.336,14.136,10.156,13.915,10.156z"/>
</g>
</svg>
