<?xml version="1.0" encoding="utf-8"?>
<!-- Generator: Adobe Illustrator 17.0.0, SVG Export Plug-In . SVG Version: 6.00 Build 0)  -->
<!DOCTYPE svg PUBLIC "-//W3C//DTD SVG 1.1//EN" "http://www.w3.org/Graphics/SVG/1.1/DTD/svg11.dtd">
<svg version="1.1" id="Layer_1" xmlns="http://www.w3.org/2000/svg" xmlns:xlink="http://www.w3.org/1999/xlink" x="0px" y="0px"
	 width="50px" height="50px" viewBox="0 0 50 50" enable-background="new 0 0 50 50" xml:space="preserve">
<circle fill="#F16538" cx="25.045" cy="25" r="24.915"/>
<g>
	<path fill="#FFFFFF" d="M21.296,27.922c0,0-1.038,0.001-1.049,0.002c-0.129,0.009-0.255,0.062-0.353,0.16l-3.12,3.12
		c0,0-0.001-2.764-0.003-2.778c-0.025-0.282-0.262-0.504-0.55-0.504h-1.572c-0.118,0-0.214-0.096-0.214-0.214v-9.431
		c0-0.118,0.096-0.214,0.214-0.214h15.719c0.118,0,0.214,0.096,0.214,0.214v3.618c0,0.305,0.248,0.553,0.553,0.553
		s0.553-0.247,0.553-0.553v-3.618c0-0.728-0.592-1.319-1.319-1.319H14.649c-0.728,0-1.319,0.592-1.319,1.319v9.431
		c0,0.728,0.592,1.319,1.319,1.319h1.019v3.511c0,0.224,0.135,0.425,0.341,0.511c0.068,0.028,0.14,0.042,0.211,0.042
		c0.144,0,0.285-0.056,0.391-0.162l3.902-3.902h0.783c0.305,0,0.553-0.247,0.553-0.553C21.849,28.17,21.601,27.922,21.296,27.922z"
		/>
	<path fill="#FFFFFF" d="M35.442,23.72H24.439c-0.728,0-1.319,0.592-1.319,1.319v6.433c0,0.728,0.592,1.319,1.319,1.319h6.889
		l2.791,2.791c0.106,0.106,0.247,0.162,0.391,0.162c0.071,0,0.143-0.014,0.211-0.042c0.207-0.086,0.341-0.287,0.341-0.511v-2.4h0.38
		c0.728,0,1.319-0.592,1.319-1.319v-6.433C36.762,24.312,36.17,23.72,35.442,23.72z M35.656,31.473c0,0.118-0.096,0.214-0.214,0.214
		H34.51c-0.291,0-0.529,0.225-0.551,0.51c-0.001,0.012-0.002,1.661-0.002,1.661L31.95,31.85c-0.002-0.002-0.004-0.004-0.006-0.006
		c-0.008-0.008-0.015-0.014-0.022-0.02c-0.097-0.085-0.224-0.137-0.364-0.137h-7.118c-0.118,0-0.214-0.096-0.214-0.214v-6.433
		c0-0.118,0.096-0.214,0.214-0.214h11.003c0.118,0,0.214,0.096,0.214,0.214V31.473z"/>
	<path fill="#FFFFFF" d="M29.941,27.703c-0.305,0-0.553,0.248-0.553,0.553s0.248,0.553,0.553,0.553c0.305,0,0.553-0.248,0.553-0.553
		C30.494,27.951,30.246,27.703,29.941,27.703z"/>
	<path fill="#FFFFFF" d="M17.478,20.613c-0.305,0-0.553,0.247-0.553,0.553c0,0.305,0.248,0.553,0.553,0.553h10.061
		c0.305,0,0.553-0.247,0.553-0.553s-0.248-0.553-0.553-0.553H17.478z"/>
	<path fill="#FFFFFF" d="M21.296,24.268h-3.818c-0.305,0-0.553,0.247-0.553,0.553s0.248,0.553,0.553,0.553h3.818
		c0.305,0,0.553-0.247,0.553-0.553C21.849,24.515,21.601,24.268,21.296,24.268z"/>
	<path fill="#FFFFFF" d="M27.372,27.703c-0.305,0-0.553,0.248-0.553,0.553s0.248,0.553,0.553,0.553c0.305,0,0.553-0.248,0.553-0.553
		C27.925,27.951,27.677,27.703,27.372,27.703z"/>
	<path fill="#FFFFFF" d="M32.509,27.703c-0.305,0-0.553,0.248-0.553,0.553s0.248,0.553,0.553,0.553c0.305,0,0.553-0.248,0.553-0.553
		C33.062,27.951,32.814,27.703,32.509,27.703z"/>
</g>
</svg>
