<?xml version="1.0" encoding="utf-8"?>
<!-- Generator: Adobe Illustrator 17.0.0, SVG Export Plug-In . SVG Version: 6.00 Build 0)  -->
<!DOCTYPE svg PUBLIC "-//W3C//DTD SVG 1.1//EN" "http://www.w3.org/Graphics/SVG/1.1/DTD/svg11.dtd">
<svg version="1.1" id="Layer_1" xmlns="http://www.w3.org/2000/svg" xmlns:xlink="http://www.w3.org/1999/xlink" x="0px" y="0px"
	 width="110px" height="110px" viewBox="0 0 110 110" enable-background="new 0 0 110 110" xml:space="preserve">
<circle fill="#F26538" cx="54.5" cy="54.5" r="54.5"/>
<g>
	<g>
		<path fill="#FFFFFF" stroke="#FFFFFF" stroke-width="0.3255" stroke-miterlimit="10" d="M37.605,66.127
			c-1.084,0.891-1.713,2.228-1.713,3.643v5.061c0,0.629,0.503,1.132,1.132,1.132c0.629,0,1.132-0.503,1.132-1.132V69.77
			c0-0.743,0.319-1.427,0.891-1.897c4.489-3.691,9.367-6.145,10.293-6.603c0.503-0.24,0.822-0.755,0.822-1.313v-7.129
			c0-0.377-0.193-0.731-0.503-0.937c-0.617-0.412-0.982-1.096-0.982-1.828v-7.391c0-3.05,2.478-5.53,5.53-5.53h1.589
			c3.05,0,5.528,2.478,5.528,5.53v7.391c0,0.731-0.365,1.416-0.982,1.828c-0.321,0.205-0.503,0.56-0.503,0.937v7.117
			c0,0.56,0.319,1.074,0.822,1.313c0.937,0.457,5.804,2.914,10.293,6.604c0.56,0.467,0.891,1.153,0.891,1.897v5.061
			c0,0.629,0.503,1.132,1.132,1.132s1.132-0.503,1.132-1.132V69.76c0-1.416-0.629-2.742-1.713-3.643
			c-4.181-3.438-8.682-5.849-10.293-6.672v-6.078c0.937-0.846,1.485-2.045,1.485-3.324v-7.391c0-4.296-3.496-7.791-7.791-7.791
			h-1.589c-4.296,0-7.791,3.495-7.791,7.791v7.391c0,1.279,0.548,2.478,1.485,3.324v6.078
			C46.287,60.267,41.798,62.688,37.605,66.127L37.605,66.127z"/>
	</g>
	<g>
		<path fill="#FFFFFF" stroke="#FFFFFF" stroke-width="0.3017" stroke-miterlimit="10" d="M82.933,58.246
			c-3.876-3.187-8.049-5.422-9.542-6.184v-5.634c0.868-0.784,1.376-1.895,1.376-3.081v-6.852c0-3.982-3.24-7.223-7.223-7.223h-1.473
			c-2.613,0-4.9,1.4-6.169,3.485c0.756,0.161,1.385,0.491,1.896,0.93c0.918-1.384,2.489-2.299,4.272-2.299h1.473
			c2.827,0,5.125,2.297,5.125,5.126v6.852c0,0.678-0.338,1.312-0.91,1.694c-0.298,0.19-0.466,0.519-0.466,0.868v6.598
			c0,0.519,0.296,0.996,0.762,1.217c0.868,0.424,5.38,2.701,9.542,6.122c0.519,0.433,0.826,1.069,0.826,1.758v4.691
			c0,0.583,0.466,1.049,1.049,1.049s1.049-0.466,1.049-1.049v-4.691C84.522,60.311,83.939,59.081,82.933,58.246z"/>
	</g>
	<g>
		<path fill="#FFFFFF" stroke="#FFFFFF" stroke-width="0.3017" stroke-miterlimit="10" d="M27.067,58.246
			c3.876-3.187,8.049-5.422,9.542-6.184v-5.634c-0.868-0.784-1.376-1.895-1.376-3.081v-6.852c0-3.982,3.24-7.223,7.223-7.223h1.473
			c2.613,0,4.9,1.4,6.169,3.485c-0.756,0.161-1.385,0.491-1.896,0.93c-0.918-1.384-2.489-2.299-4.272-2.299h-1.473
			c-2.827,0-5.125,2.297-5.125,5.126v6.852c0,0.678,0.338,1.312,0.91,1.694c0.298,0.19,0.466,0.519,0.466,0.868v6.598
			c0,0.519-0.296,0.996-0.762,1.217c-0.868,0.424-5.38,2.701-9.542,6.122c-0.519,0.433-0.826,1.069-0.826,1.758v4.691
			c0,0.583-0.466,1.049-1.049,1.049c-0.583,0-1.049-0.466-1.049-1.049v-4.691C25.478,60.311,26.061,59.081,27.067,58.246z"/>
	</g>
</g>
<path fill="#FFFFFF" d="M61.851,71.415c-1.454-1.458-3.818-1.458-5.272,0l-9.666,9.662c-0.076,0.076-0.122,0.173-0.137,0.277
	l-0.716,5.304c-0.022,0.151,0.032,0.302,0.137,0.407c0.09,0.09,0.216,0.144,0.342,0.144c0.021,0,0.043,0,0.065-0.004l3.195-0.432
	c0.266-0.036,0.454-0.281,0.417-0.547c-0.036-0.266-0.281-0.453-0.547-0.417l-2.562,0.345l0.5-3.699l3.894,3.894
	c0.09,0.09,0.216,0.144,0.342,0.144s0.252-0.05,0.342-0.144l9.666-9.662c0.705-0.705,1.094-1.641,1.094-2.638
	C62.945,73.053,62.556,72.117,61.851,71.415L61.851,71.415z M56.766,72.603l1.623,1.623l-8.82,8.82l-1.623-1.623L56.766,72.603z
	 M51.847,85.32l-1.587-1.587l8.82-8.82l1.587,1.587L51.847,85.32z M61.343,75.805l-3.883-3.883c0.493-0.407,1.108-0.63,1.756-0.63
	c0.738,0,1.429,0.288,1.95,0.806c0.522,0.518,0.806,1.213,0.806,1.95C61.973,74.701,61.75,75.313,61.343,75.805L61.343,75.805z
	 M61.343,75.805"/>
</svg>
