<?xml version="1.0" encoding="utf-8"?>
<!-- Generator: Adobe Illustrator 17.0.0, SVG Export Plug-In . SVG Version: 6.00 Build 0)  -->
<!DOCTYPE svg PUBLIC "-//W3C//DTD SVG 1.1//EN" "http://www.w3.org/Graphics/SVG/1.1/DTD/svg11.dtd">
<svg version="1.1" id="Layer_1" xmlns="http://www.w3.org/2000/svg" xmlns:xlink="http://www.w3.org/1999/xlink" x="0px" y="0px"
	 width="23px" height="21px" viewBox="0 0 23 21" enable-background="new 0 0 23 21" xml:space="preserve">
<g>
	<path fill="#B8B8B8" d="M7.606,7.613C7.324,7.846,7.163,8.19,7.163,8.553V9.65c0,0.246,0.197,0.443,0.443,0.443
		c0.246,0,0.443-0.197,0.443-0.443V8.553c0-0.098,0.045-0.192,0.121-0.255c0.958-0.783,1.992-1.307,2.193-1.405
		c0.174-0.085,0.291-0.269,0.291-0.461V4.887c0-0.148-0.076-0.286-0.197-0.367c-0.076-0.054-0.125-0.139-0.125-0.233V2.685
		c0-0.551,0.448-0.998,0.998-0.998h0.345c0.551,0,0.998,0.448,0.998,0.998v1.602c0,0.094-0.045,0.179-0.125,0.233
		C12.422,4.601,12.35,4.74,12.35,4.887v1.544c0,0.197,0.112,0.376,0.286,0.461c0.197,0.099,1.235,0.622,2.193,1.405
		c0.076,0.063,0.121,0.157,0.121,0.255V9.65c0,0.246,0.197,0.443,0.443,0.443c0.246,0,0.443-0.197,0.443-0.443V8.553
		c0-0.367-0.161-0.712-0.443-0.94c-0.841-0.689-1.737-1.191-2.157-1.41V5.089c0.206-0.215,0.322-0.501,0.322-0.806V2.685
		c0-1.038-0.846-1.884-1.884-1.884H11.33c-1.038,0-1.884,0.846-1.884,1.884v1.602c0,0.304,0.116,0.591,0.322,0.806v1.11
		C9.343,6.423,8.448,6.924,7.606,7.613L7.606,7.613z M7.606,7.613"/>
	<path fill="#B8B8B8" d="M22.027,20.199c0.246,0,0.443-0.197,0.443-0.443v-1.097c0-0.367-0.161-0.712-0.443-0.94
		c-0.841-0.689-1.737-1.19-2.157-1.41v-1.114c0.206-0.215,0.322-0.501,0.322-0.806v-1.602c0-1.038-0.846-1.884-1.884-1.884h-0.345
		c-1.039,0-1.884,0.846-1.884,1.884v1.602c0,0.304,0.116,0.591,0.322,0.806v1.114c-0.421,0.219-1.316,0.721-2.157,1.41
		c-0.282,0.233-0.443,0.573-0.443,0.94v1.097c0,0.246,0.197,0.443,0.443,0.443c0.246,0,0.443-0.197,0.443-0.443v-1.097
		c0-0.098,0.045-0.192,0.121-0.255c0.958-0.788,1.992-1.312,2.193-1.405c0.175-0.085,0.287-0.269,0.287-0.461v-1.544
		c0-0.148-0.076-0.287-0.197-0.367c-0.076-0.054-0.125-0.139-0.125-0.233v-1.602c0-0.551,0.448-0.998,0.998-0.998h0.345
		c0.551,0,0.998,0.448,0.998,0.998v1.602c0,0.094-0.045,0.179-0.125,0.233c-0.125,0.08-0.197,0.219-0.197,0.367v1.544
		c0,0.197,0.112,0.376,0.287,0.461c0.197,0.099,1.235,0.622,2.193,1.405c0.076,0.063,0.121,0.157,0.121,0.255v1.097
		C21.584,20.002,21.785,20.199,22.027,20.199L22.027,20.199z M22.027,20.199"/>
	<path fill="#B8B8B8" d="M8.756,17.719c-0.841-0.689-1.737-1.19-2.157-1.41v-1.114c0.206-0.215,0.322-0.501,0.322-0.806v-1.602
		c0-1.038-0.846-1.884-1.884-1.884H4.692c-1.038,0-1.884,0.846-1.884,1.884v1.602c0,0.304,0.116,0.591,0.322,0.806v1.114
		c-0.421,0.219-1.316,0.721-2.157,1.41c-0.282,0.233-0.443,0.573-0.443,0.94v1.097c0,0.246,0.197,0.443,0.443,0.443
		c0.246,0,0.443-0.197,0.443-0.443v-1.097c0-0.098,0.045-0.192,0.121-0.255c0.958-0.788,1.992-1.312,2.193-1.405
		c0.175-0.085,0.287-0.269,0.287-0.461v-1.544c0-0.148-0.076-0.287-0.197-0.367c-0.076-0.054-0.125-0.139-0.125-0.233v-1.602
		c0-0.551,0.448-0.998,0.998-0.998h0.345c0.55,0,0.998,0.448,0.998,0.998v1.602c0,0.094-0.045,0.179-0.125,0.233
		c-0.125,0.08-0.197,0.219-0.197,0.367v1.544c0,0.197,0.112,0.376,0.287,0.461c0.197,0.099,1.235,0.618,2.193,1.405
		c0.076,0.063,0.121,0.157,0.121,0.255v1.097c0,0.246,0.197,0.443,0.443,0.443c0.246,0,0.443-0.197,0.443-0.443v-1.097
		C9.2,18.292,9.038,17.948,8.756,17.719L8.756,17.719z M8.756,17.719"/>
	<path fill="#B8B8B8" d="M14.02,15.074c0.071,0.04,0.148,0.058,0.219,0.058c0.152,0,0.304-0.081,0.385-0.224
		c0.121-0.21,0.049-0.483-0.161-0.604l-2.484-1.432v-2.869c0-0.246-0.197-0.443-0.443-0.443c-0.246,0-0.443,0.197-0.443,0.443v2.869
		l-2.484,1.437c-0.21,0.121-0.286,0.394-0.161,0.604c0.081,0.143,0.233,0.224,0.385,0.224c0.076,0,0.152-0.018,0.219-0.058
		l2.484-1.437L14.02,15.074z M14.02,15.074"/>
</g>
</svg>
