<?xml version="1.0" encoding="utf-8"?>
<!-- Generator: Adobe Illustrator 17.0.0, SVG Export Plug-In . SVG Version: 6.00 Build 0)  -->
<!DOCTYPE svg PUBLIC "-//W3C//DTD SVG 1.1//EN" "http://www.w3.org/Graphics/SVG/1.1/DTD/svg11.dtd">
<svg version="1.1" id="Layer_1" xmlns="http://www.w3.org/2000/svg" xmlns:xlink="http://www.w3.org/1999/xlink" x="0px" y="0px"
	 width="15px" height="17px" viewBox="0 0 15 17" enable-background="new 0 0 15 17" xml:space="preserve">
<g>
	<path fill="#F16537" d="M14.798,15.851v-11.9c0-0.347-0.277-0.656-0.657-0.656c-0.347,0-0.656,0.277-0.656,0.656v11.173H2.379
		c-0.52,0-0.9-0.277-0.9-0.553c0-0.277,0.38-0.553,0.9-0.553h9.41c0.347,0,0.657-0.277,0.657-0.656V1.149
		c0-0.347-0.277-0.657-0.657-0.657h-8.96C1.376,0.492,0.2,1.495,0.2,2.705v11.9c0,1.073,0.97,1.903,2.213,1.903h11.763
		C14.522,16.507,14.831,16.231,14.798,15.851L14.798,15.851z M1.549,2.705c0-0.483,0.587-0.866,1.28-0.866h8.304v10.863H2.415
		c-0.307,0-0.6,0.053-0.866,0.15V2.705z"/>
	<path fill="#F16537" d="M4.092,5.438h4.392c0.38,0,0.693-0.31,0.693-0.656c0-0.347-0.277-0.657-0.656-0.657H4.092
		c-0.347,0-0.657,0.31-0.657,0.657C3.435,5.128,3.712,5.438,4.092,5.438L4.092,5.438z"/>
</g>
</svg>
