<?xml version="1.0" encoding="utf-8"?>
<!-- Generator: Adobe Illustrator 17.0.0, SVG Export Plug-In . SVG Version: 6.00 Build 0)  -->
<!DOCTYPE svg PUBLIC "-//W3C//DTD SVG 1.1//EN" "http://www.w3.org/Graphics/SVG/1.1/DTD/svg11.dtd">
<svg version="1.1" id="Layer_1" xmlns="http://www.w3.org/2000/svg" xmlns:xlink="http://www.w3.org/1999/xlink" x="0px" y="0px"
	 width="20px" height="20px" viewBox="0 0 20 20" enable-background="new 0 0 20 20" xml:space="preserve">
<path fill="#8A8A8A" d="M17.28,16.941"/>
<path fill="#8A8A8A" d="M10.78,4.881"/>
<g>
	<path fill="#F16537" d="M18.086,14.825l-2.315-2.323c-0.409-0.426-0.902-0.653-1.425-0.653c-0.519,0-1.016,0.223-1.442,0.649
		l-1.332,1.328c-0.11-0.059-0.219-0.114-0.325-0.169c-0.152-0.076-0.295-0.148-0.417-0.224c-1.248-0.792-2.382-1.825-3.469-3.162
		C6.834,9.606,6.48,9.046,6.223,8.477c0.346-0.316,0.666-0.645,0.978-0.961c0.118-0.118,0.236-0.24,0.354-0.358
		c0.885-0.885,0.885-2.032,0-2.917L6.404,3.089c-0.13-0.131-0.266-0.266-0.392-0.4C5.759,2.427,5.494,2.157,5.22,1.904
		C4.811,1.5,4.321,1.285,3.807,1.285c-0.514,0-1.012,0.215-1.433,0.62L2.366,1.913L0.932,3.359c-0.54,0.539-0.847,1.197-0.915,1.96
		c-0.101,1.231,0.261,2.378,0.54,3.128c0.683,1.842,1.703,3.55,3.225,5.379c1.846,2.205,4.068,3.946,6.606,5.173
		c0.969,0.459,2.264,1.003,3.71,1.096c0.089,0.004,0.181,0.008,0.266,0.008c0.974,0,1.792-0.35,2.432-1.045
		c0.004-0.008,0.013-0.013,0.017-0.021c0.219-0.266,0.472-0.506,0.738-0.763c0.181-0.173,0.367-0.354,0.548-0.544
		c0.417-0.434,0.636-0.94,0.636-1.459C18.735,15.749,18.511,15.247,18.086,14.825z M17.28,16.942
		c-0.164,0.177-0.333,0.337-0.514,0.514c-0.274,0.261-0.552,0.535-0.814,0.843c-0.426,0.455-0.927,0.67-1.585,0.67
		c-0.063,0-0.131,0-0.194-0.004c-1.252-0.08-2.416-0.569-3.288-0.986c-2.386-1.155-4.481-2.795-6.222-4.873
		c-1.437-1.733-2.399-3.335-3.035-5.055c-0.392-1.05-0.535-1.868-0.472-2.639C1.198,4.919,1.387,4.51,1.737,4.16l1.438-1.438
		c0.206-0.194,0.426-0.299,0.641-0.299c0.266,0,0.48,0.16,0.615,0.295l0.013,0.013c0.257,0.24,0.502,0.489,0.759,0.755
		c0.131,0.135,0.266,0.27,0.4,0.409l1.151,1.151c0.447,0.447,0.447,0.86,0,1.307c-0.122,0.122-0.24,0.245-0.362,0.362
		C6.037,7.077,5.7,7.414,5.333,7.743C5.325,7.752,5.317,7.756,5.312,7.764C4.95,8.127,5.017,8.481,5.093,8.721l0.013,0.038
		c0.299,0.725,0.721,1.408,1.362,2.222l0.004,0.004c1.164,1.433,2.39,2.551,3.743,3.406c0.173,0.11,0.35,0.198,0.518,0.282
		c0.152,0.076,0.295,0.148,0.417,0.224c0.017,0.008,0.034,0.021,0.051,0.029c0.143,0.072,0.278,0.105,0.417,0.105
		c0.35,0,0.569-0.219,0.641-0.291l1.442-1.442c0.143-0.143,0.371-0.316,0.637-0.316c0.261,0,0.476,0.164,0.607,0.308l2.331,2.331
		C17.71,16.052,17.71,16.495,17.28,16.942z"/>
	<path fill="#F16537" d="M10.78,4.881c1.104,0.185,2.108,0.708,2.909,1.509c0.801,0.801,1.319,1.804,1.509,2.909
		c0.046,0.278,0.287,0.472,0.561,0.472c0.034,0,0.063-0.004,0.097-0.008c0.312-0.051,0.518-0.346,0.468-0.658
		c-0.228-1.336-0.86-2.555-1.825-3.52c-0.965-0.965-2.184-1.598-3.52-1.825c-0.312-0.05-0.603,0.156-0.658,0.464
		C10.266,4.531,10.468,4.83,10.78,4.881L10.78,4.881z"/>
	<path fill="#F16537" d="M19.936,8.94c-0.375-2.2-1.412-4.203-3.006-5.796c-1.593-1.593-3.596-2.63-5.796-3.006
		c-0.308-0.055-0.599,0.156-0.653,0.464c-0.051,0.312,0.156,0.603,0.468,0.658c1.965,0.333,3.756,1.265,5.181,2.685
		c1.425,1.425,2.352,3.216,2.685,5.181c0.046,0.278,0.287,0.472,0.561,0.472c0.034,0,0.063-0.004,0.097-0.008
		C19.78,9.543,19.991,9.248,19.936,8.94L19.936,8.94z"/>
</g>
<path fill="#8A8A8A" d="M19.936,8.94"/>
</svg>
