<?xml version="1.0" encoding="utf-8"?>
<!-- Generator: Adobe Illustrator 17.0.0, SVG Export Plug-In . SVG Version: 6.00 Build 0)  -->
<!DOCTYPE svg PUBLIC "-//W3C//DTD SVG 1.1//EN" "http://www.w3.org/Graphics/SVG/1.1/DTD/svg11.dtd">
<svg version="1.1" xmlns="http://www.w3.org/2000/svg" xmlns:xlink="http://www.w3.org/1999/xlink" x="0px" y="0px"
	 width="20.582px" height="20.571px" viewBox="16.417 16.271 20.582 20.571" enable-background="new 16.417 16.271 20.582 20.571"
	 xml:space="preserve">
<g id="Layer_1" display="none">
	<g id="Layer_1_1_">
		<g display="inline">
			<g>
				<g>
					<defs>
						<circle id="SVGID_1_" cx="25" cy="25" r="25"/>
					</defs>
					<clipPath id="SVGID_2_">
						<use xlink:href="#SVGID_1_"  overflow="visible"/>
					</clipPath>
					<g clip-path="url(#SVGID_2_)">
						<polygon fill="#F86F01" points="28.375,0.125 19.875,23.75 40.25,17.625 49,16.188 49,1.5 						"/>
						<polygon fill="#F88601" points="44.438,41.625 28.854,19.686 47.309,14.634 59.646,25.75 						"/>
						<polygon fill="#F86F01" points="21.875,50 25,21.625 29.458,20.075 44.656,40.625 39.5,51.125 						"/>
						<polygon fill="#F88601" points="1.75,34.25 25,21.625 21.875,50.625 7.25,49.375 						"/>
						<polygon fill="#F86F01" points="5.5,9.25 17,25.969 1,34.875 -6.375,25 -3.375,12 						"/>
						<polygon fill="#F88601" points="25,21.625 29.813,-2.25 7.25,-1 3.5,6.5 17,25.969 						"/>
					</g>
				</g>
			</g>
		</g>
		<g display="inline">
			<rect x="11.5" y="12" fill="#FCFCFC" width="28" height="25"/>
			<polygon fill="#F86F01" points="16,31.75 35.75,31.75 30,21.25 27.333,27.083 25,25 21.25,29 19.5,26.5 			"/>
			<circle fill="#F86F01" cx="19.875" cy="21.625" r="2.875"/>
		</g>
	</g>
	<g id="Layer2">
		<g id="Layer_2" display="inline">
			<circle fill="#F88600" cx="24.875" cy="24.875" r="23.875"/>
			<polygon fill="#FFFFFF" points="11.609,19.906 16.151,16.5 24.668,24.733 33.185,16.5 38.141,20.001 24.952,33.25 			"/>
		</g>
	</g>
	<g id="Layer_3">
		<g display="inline">
			<g>
				<path fill="#EF7E03" d="M25,1C11.746,1,1,11.745,1,24.999S11.746,49,25,49s24-10.746,24-24.001S38.254,1,25,1L25,1z
					 M7.518,34.039c0-7.497,6.584-7.495,8.045-9.455l0.167-0.895c-2.053-1.041-3.502-3.548-3.502-6.482
					c0-3.865,2.514-6.998,5.615-6.998c2.441,0,4.512,1.946,5.286,4.659c-3.106,0.987-5.403,4.354-5.403,8.357
					c0,2.756,1.087,5.29,2.87,6.899c-0.286,0.147-0.605,0.297-0.879,0.425c-1.437,0.675-3.431,1.612-4.87,3.49H7.518z
					 M25.073,40.057L25.073,40.057l-10.398-0.001c0-7.497,6.584-7.495,8.045-9.455l0.167-0.894
					c-2.052-1.041-3.502-3.548-3.502-6.482c0-3.865,2.514-6.998,5.614-6.998c3.101,0,5.614,3.133,5.614,6.998
					c0,2.909-1.423,5.401-3.448,6.458l0.191,1.016c1.603,1.866,7.968,1.987,7.968,9.358C35.324,40.057,25.073,40.057,25.073,40.057z
					 M35.153,34.04L35.153,34.04c-1.439-1.877-3.433-2.815-4.871-3.49c-0.283-0.133-0.596-0.281-0.877-0.424
					c1.781-1.612,2.87-4.151,2.87-6.901c0-4.002-2.297-7.369-5.402-8.356c0.773-2.713,2.845-4.659,5.286-4.659
					c3.101,0,5.614,3.134,5.614,6.999c0,2.908-1.423,5.401-3.448,6.458l0.19,1.016c1.603,1.866,7.969,1.987,7.969,9.359h-7.331
					C35.153,34.042,35.153,34.04,35.153,34.04z"/>
			</g>
		</g>
	</g>
	<g id="Layer_4">
		<circle display="inline" fill="#F88600" cx="24.994" cy="25.125" r="23.875"/>
		<g display="inline">
			<g>
				<path fill="#FFFFFF" d="M31.04,38.792c0.279,0,0.502-0.223,0.502-0.502v-1.693c0-0.512-0.223-0.989-0.618-1.313
					c-1.353-1.115-2.803-1.906-3.396-2.21v-1.906c0.314-0.304,0.497-0.72,0.497-1.166v-2.474c0-1.505-1.227-2.727-2.727-2.727
					h-0.532c-1.506,0-2.727,1.227-2.727,2.727v2.474c0,0.446,0.182,0.862,0.497,1.166v1.906c-0.593,0.304-2.043,1.095-3.396,2.21
					c-0.395,0.324-0.618,0.801-0.618,1.313v1.693c0,0.279,0.223,0.502,0.502,0.502c0.279,0,0.502-0.223,0.502-0.502v-1.693
					c0-0.208,0.091-0.405,0.253-0.537c1.495-1.227,3.112-2.043,3.422-2.195c0.213-0.101,0.344-0.314,0.344-0.548v-2.382
					c0-0.167-0.086-0.324-0.223-0.416c-0.172-0.117-0.274-0.304-0.274-0.512v-2.474c0-0.953,0.776-1.723,1.723-1.723h0.532
					c0.953,0,1.723,0.775,1.723,1.723v2.474c0,0.203-0.102,0.395-0.274,0.512c-0.142,0.091-0.223,0.249-0.223,0.416v2.382
					c0,0.233,0.132,0.446,0.345,0.553c0.309,0.152,1.926,0.968,3.422,2.195c0.162,0.132,0.253,0.329,0.253,0.537v1.693
					C30.538,38.569,30.761,38.792,31.04,38.792L31.04,38.792z"/>
				<g>
					<path fill="#FFFFFF" d="M12.646,31.211c-0.413,0.343-0.655,0.846-0.655,1.386v1.641c0,0.35,0.28,0.63,0.63,0.63
						s0.629-0.28,0.629-0.63v-1.641c0-0.159,0.07-0.311,0.191-0.413c1.437-1.177,2.989-1.965,3.288-2.111
						c0.254-0.127,0.413-0.375,0.413-0.661v-2.308c0-0.21-0.108-0.407-0.28-0.522c-0.127-0.083-0.204-0.222-0.204-0.375V23.81
						c0-0.846,0.687-1.526,1.526-1.526H18.7c0.846,0,1.527,0.687,1.527,1.526v2.397c0,0.153-0.076,0.293-0.204,0.375
						c-0.178,0.115-0.28,0.312-0.28,0.522v1.157c0,0.35,0.28,0.63,0.63,0.63c0.35,0,0.629-0.28,0.629-0.63v-0.865
						c0.305-0.318,0.483-0.738,0.483-1.189V23.81c0-1.539-1.253-2.785-2.786-2.785h-0.515c-1.539,0-2.786,1.253-2.786,2.785v2.397
						c0,0.452,0.178,0.871,0.483,1.189v1.698C15.267,29.417,13.912,30.174,12.646,31.211L12.646,31.211z"/>
					<path fill="#FFFFFF" d="M22.973,29.546c-0.131,0.298-0.479,0.433-0.777,0.301l-2.085-0.919
						c-0.298-0.131-0.433-0.479-0.301-0.777l0,0c0.131-0.298,0.479-0.433,0.777-0.301l2.085,0.919
						C22.97,28.901,23.105,29.248,22.973,29.546L22.973,29.546z"/>
				</g>
				<g>
					<path fill="#FFFFFF" d="M31.287,22.275h0.515c0.846,0,1.526,0.687,1.526,1.527v2.397c0,0.152-0.076,0.292-0.203,0.375
						c-0.178,0.115-0.28,0.311-0.28,0.521v2.308c0,0.286,0.159,0.534,0.413,0.661c0.299,0.146,1.851,0.928,3.288,2.112
						c0.121,0.102,0.191,0.248,0.191,0.413v1.641c0,0.35,0.28,0.629,0.63,0.629c0.35,0,0.629-0.28,0.629-0.629v-1.64
						c0-0.541-0.235-1.043-0.655-1.386c-1.266-1.043-2.62-1.793-3.243-2.118v-1.698c0.305-0.318,0.483-0.738,0.483-1.189v-2.397
						c0-1.539-1.253-2.786-2.786-2.786H31.28c-1.539,0-2.786,1.253-2.786,2.786v2.397c0,0.451,0.178,0.871,0.483,1.189v0.82
						c0,0.35,0.28,0.63,0.629,0.63c0.35,0,0.63-0.28,0.63-0.63v-1.106c0-0.21-0.108-0.407-0.28-0.522
						c-0.127-0.083-0.204-0.222-0.204-0.375v-2.397C29.754,22.962,30.441,22.275,31.287,22.275L31.287,22.275z"/>
					<path fill="#FFFFFF" d="M30.064,27.929c0.188,0.265,0.125,0.633-0.14,0.821l-1.859,1.317c-0.265,0.188-0.633,0.125-0.821-0.14
						l0,0c-0.188-0.265-0.125-0.633,0.14-0.821l1.859-1.317C29.508,27.601,29.876,27.664,30.064,27.929L30.064,27.929z"/>
				</g>
			</g>
			<path fill="#FFFFFF" d="M32.031,19.349c0.484,0.017,0.903-0.13,1.211-0.42c0.305-0.288,0.481-0.697,0.505-1.184
				c0.011-0.212,0.015-0.422,0.016-0.624c0.004-0.299,0.005-0.581,0.04-0.857c0.003-0.007,0-0.014,0.003-0.022
				c0.054-0.763-0.194-1.438-0.734-2.011c-0.047-0.05-0.101-0.102-0.152-0.152c-0.857-0.799-1.894-1.259-2.703-1.575
				c-2.13-0.813-4.386-1.154-6.708-1.017c-1.921,0.12-3.491,0.466-4.954,1.087c-0.596,0.252-1.472,0.675-2.14,1.418
				c-0.411,0.463-0.628,1.009-0.646,1.626l-0.056,1.646v0.01c-0.004,0.473,0.145,0.884,0.431,1.187
				c0.285,0.303,0.683,0.471,1.148,0.487c0.301,0.021,0.607,0.027,0.901,0.031c0.149,0,0.304,0.004,0.453,0.008l1.316,0.039
				c1.012,0.03,1.687-0.606,1.716-1.618c0.004-0.135,0.01-0.272,0.014-0.407c0.013-0.359,0.029-0.73,0.023-1.109
				c0.477-0.164,1.004-0.267,1.688-0.327c1.39-0.101,2.626-0.007,3.785,0.287c0.113,0.03,0.234,0.074,0.363,0.122
				c0.091,0.032,0.184,0.066,0.279,0.097l-0.042,1.52c-0.014,0.487,0.13,0.903,0.418,1.208c0.29,0.307,0.697,0.471,1.175,0.476
				L32.031,19.349z M32.829,17.701c-0.024,0.501-0.285,0.746-0.779,0.729l-2.665-0.078c-0.157,0.003-0.373-0.033-0.518-0.186
				c-0.147-0.156-0.172-0.386-0.167-0.55l0.048-1.648c0.002-0.082,0.01-0.332-0.184-0.538c-0.077-0.082-0.172-0.142-0.293-0.187
				c-0.014-0.005-0.031-0.008-0.045-0.013c-0.112-0.03-0.234-0.074-0.363-0.122C27.72,15.055,27.57,15,27.409,14.959
				c-1.254-0.321-2.592-0.423-4.081-0.313h-0.005c-0.834,0.074-1.47,0.205-2.062,0.431l-0.03,0.014
				c-0.183,0.089-0.429,0.245-0.441,0.66c-0.002,0.007,0,0.014-0.001,0.024c0.01,0.398-0.001,0.784-0.018,1.193
				c-0.002,0.137-0.008,0.275-0.012,0.414c-0.015,0.511-0.258,0.74-0.769,0.725l-1.315-0.039c-0.157-0.002-0.311-0.007-0.463-0.009
				c-0.299-0.004-0.581-0.01-0.865-0.028h-0.014c-0.154-0.005-0.368-0.042-0.515-0.198c-0.119-0.127-0.179-0.314-0.179-0.543
				l0.048-1.643c0.012-0.4,0.147-0.738,0.414-1.037c0.419-0.465,0.979-0.835,1.815-1.186c1.365-0.58,2.841-0.903,4.657-1.018
				c2.188-0.129,4.316,0.194,6.319,0.957c0.73,0.282,1.663,0.695,2.404,1.387c0.037,0.035,0.075,0.075,0.11,0.112
				c0.365,0.387,0.517,0.801,0.485,1.304c-0.036,0.324-0.043,0.64-0.045,0.946C32.843,17.318,32.842,17.506,32.829,17.701
				C32.829,17.696,32.827,17.699,32.829,17.701L32.829,17.701z"/>
		</g>
	</g>
	<g id="Layer_5">
		<g display="inline">
			<g enable-background="new    ">
				<path fill="#F88600" d="M27.406,4.541c10.991,0,19.933,8.942,19.933,19.933s-8.942,19.933-19.933,19.933
					c-4.991,0-9.766-1.853-13.446-5.218l-1.796,1.964c4.018,3.674,9.368,5.915,15.242,5.915C39.884,47.068,50,36.952,50,24.474
					S39.884,1.879,27.406,1.879l0,0c-12.479,0-22.594,10.116-22.594,22.594h2.661C7.472,13.483,16.414,4.541,27.406,4.541"/>
			</g>
			<polygon fill="#F88600" points="5.525,26.549 13.538,21.026 -0.011,18.52 			"/>
			<g>
				<g>
					<path fill="#F88600" d="M38.223,30.443c0.044,0.335-0.058,0.627-0.306,0.875l-2.908,2.886c-0.131,0.146-0.302,0.27-0.514,0.372
						c-0.211,0.102-0.419,0.168-0.623,0.197c-0.015,0-0.058,0.004-0.131,0.011s-0.168,0.011-0.284,0.011
						c-0.277,0-0.725-0.047-1.345-0.142c-0.62-0.095-1.377-0.328-2.274-0.7s-1.913-0.929-3.05-1.673
						c-1.137-0.743-2.347-1.764-3.63-3.061c-1.02-1.006-1.866-1.968-2.536-2.886c-0.671-0.918-1.21-1.767-1.618-2.547
						c-0.408-0.78-0.714-1.487-0.918-2.121c-0.204-0.634-0.343-1.181-0.415-1.64c-0.073-0.459-0.102-0.82-0.087-1.082
						s0.022-0.408,0.022-0.437c0.029-0.204,0.095-0.412,0.197-0.623c0.102-0.211,0.226-0.383,0.372-0.514l2.908-2.908
						c0.204-0.204,0.437-0.306,0.7-0.306c0.189,0,0.357,0.055,0.503,0.164c0.146,0.109,0.27,0.244,0.372,0.405l2.34,4.439
						c0.131,0.233,0.168,0.488,0.109,0.765c-0.058,0.277-0.182,0.51-0.372,0.7l-1.071,1.071c-0.029,0.029-0.055,0.077-0.077,0.142
						c-0.022,0.066-0.033,0.12-0.033,0.164c0.058,0.306,0.189,0.656,0.394,1.05c0.175,0.35,0.445,0.776,0.809,1.279
						s0.882,1.082,1.552,1.738c0.656,0.671,1.239,1.192,1.749,1.563c0.51,0.372,0.937,0.645,1.279,0.82s0.605,0.281,0.787,0.317
						l0.273,0.055c0.029,0,0.077-0.011,0.142-0.033c0.066-0.022,0.113-0.047,0.142-0.077l1.246-1.268
						c0.263-0.233,0.568-0.35,0.918-0.35c0.248,0,0.445,0.044,0.59,0.131h0.022l4.22,2.493
						C37.982,29.911,38.165,30.151,38.223,30.443z"/>
				</g>
			</g>
		</g>
	</g>
	<g id="Layer_6">
		<circle display="inline" fill="#F88600" cx="25" cy="25" r="24.815"/>
		<path display="inline" fill="#FFFFFF" d="M13.964,18.396c0.003,0-0.006,0.173-0.022,0.459c-0.014,0.259,0.017,0.634,0.094,1.116
			c0.079,0.493,0.231,1.096,0.456,1.791c0.222,0.691,0.563,1.478,1.013,2.338c0.452,0.864,1.061,1.822,1.809,2.847
			c0.743,1.017,1.7,2.106,2.844,3.236c1.44,1.455,2.807,2.61,4.07,3.436c1.27,0.83,2.414,1.458,3.398,1.864
			c0.981,0.408,1.812,0.666,2.471,0.765c1.312,0.205,1.534,0.164,1.727,0.147c0.107-0.012,0.177-0.016,0.202-0.016
			c0.089-0.019,0.271-0.076,0.457-0.167c0.173-0.082,0.31-0.18,0.406-0.287l3.357-3.335c0.154-0.153,0.209-0.305,0.183-0.507
			c-0.016-0.068-0.076-0.23-0.353-0.402l-4.852-2.852c-0.072-0.042-0.664-0.146-1.039,0.186l-1.399,1.425
			c-0.097,0.101-0.229,0.179-0.4,0.235c-0.128,0.045-0.241,0.068-0.346,0.068l-0.428-0.073c-0.265-0.053-0.609-0.189-1.056-0.416
			c-0.421-0.215-0.94-0.547-1.546-0.99c-0.606-0.441-1.306-1.066-2.079-1.857c-0.779-0.761-1.399-1.456-1.835-2.058
			c-0.434-0.598-0.763-1.119-0.977-1.549c-0.255-0.491-0.426-0.949-0.503-1.356c-0.01-0.226,0.012-0.349,0.058-0.485
			c0.055-0.163,0.128-0.29,0.226-0.389l1.232-1.232c0.136-0.135,0.223-0.301,0.265-0.506c0.037-0.177,0.018-0.326-0.062-0.467
			l-2.69-5.103c-0.055-0.084-0.147-0.184-0.257-0.267c-0.135-0.102-0.303-0.197-0.608,0.107l-3.334,3.334
			c-0.133,0.12-0.23,0.257-0.312,0.428c-0.089,0.186-0.147,0.366-0.172,0.536C13.964,18.397,13.964,18.396,13.964,18.396z"/>
	</g>
	<g id="Layer_7">
		<g display="inline">
			<g>
				<path fill="#F88600" d="M49.651,23.447H6.294l9.773-9.773l-2.197-2.196L0.349,25L13.87,38.522l2.197-2.196l-9.773-9.773h43.357
					C49.651,26.553,49.651,23.447,49.651,23.447z"/>
			</g>
		</g>
	</g>
	<g id="Layer_8">
		<g display="inline">
			<path fill="#F88600" d="M30.425,34.475c-0.748-0.779-1.651-1.195-2.607-1.195c-0.949,0-1.859,0.409-2.638,1.188l-2.437,2.429
				c-0.201-0.108-0.401-0.208-0.594-0.308c-0.278-0.139-0.54-0.27-0.764-0.409c-2.283-1.45-4.358-3.34-6.348-5.785
				c-0.964-1.219-1.612-2.245-2.082-3.285c0.632-0.578,1.219-1.18,1.789-1.759c0.216-0.216,0.432-0.439,0.648-0.656
				c1.619-1.619,1.619-3.717,0-5.337l-2.106-2.106c-0.239-0.239-0.486-0.486-0.717-0.732c-0.463-0.478-0.949-0.972-1.45-1.435
				c-0.748-0.74-1.643-1.134-2.584-1.134s-1.851,0.393-2.622,1.134L5.898,15.1l-2.623,2.646c-0.987,0.987-1.55,2.19-1.674,3.586
				c-0.185,2.252,0.478,4.35,0.987,5.723c1.249,3.371,3.116,6.494,5.9,9.842c3.378,4.034,7.443,7.219,12.086,9.464
				c1.774,0.841,4.142,1.836,6.787,2.005c0.162,0.008,0.332,0.015,0.486,0.015c1.782,0,3.278-0.64,4.45-1.913
				c0.008-0.015,0.023-0.023,0.031-0.038c0.401-0.486,0.864-0.926,1.35-1.396c0.331-0.316,0.671-0.648,1.002-0.995
				c0.764-0.794,1.164-1.72,1.164-2.669c0-0.956-0.409-1.874-1.187-2.646L30.425,34.475z M33.187,42.597
				C33.179,42.597,33.179,42.605,33.187,42.597c-0.301,0.324-0.609,0.617-0.941,0.941c-0.501,0.478-1.01,0.98-1.488,1.543
				c-0.779,0.833-1.697,1.226-2.9,1.226c-0.116,0-0.239,0-0.355-0.008c-2.29-0.147-4.419-1.041-6.016-1.805
				c-4.366-2.113-8.199-5.114-11.384-8.916c-2.63-3.17-4.388-6.101-5.553-9.248c-0.717-1.92-0.98-3.417-0.864-4.828
				c0.077-0.903,0.424-1.651,1.064-2.291l2.63-2.63c0.378-0.355,0.779-0.548,1.172-0.548c0.486,0,0.879,0.293,1.126,0.54
				l0.023,0.023c0.471,0.44,0.918,0.895,1.388,1.381c0.239,0.247,0.486,0.494,0.733,0.748l2.106,2.106
				c0.818,0.818,0.818,1.573,0,2.391c-0.224,0.224-0.44,0.447-0.663,0.663c-0.648,0.663-1.265,1.28-1.936,1.882
				c-0.015,0.015-0.031,0.023-0.039,0.038c-0.663,0.664-0.54,1.311-0.401,1.751l0.023,0.07c0.548,1.326,1.319,2.576,2.491,4.065
				l0.008,0.008c2.129,2.622,4.373,4.667,6.849,6.232c0.316,0.201,0.64,0.363,0.949,0.517c0.278,0.139,0.54,0.27,0.764,0.409
				c0.031,0.016,0.062,0.038,0.093,0.054c0.262,0.131,0.509,0.193,0.763,0.193c0.64,0,1.041-0.401,1.172-0.532l2.638-2.638
				c0.262-0.263,0.679-0.578,1.165-0.578c0.478,0,0.871,0.301,1.111,0.563l4.265,4.265C33.973,40.97,33.973,41.78,33.187,42.597
				L33.187,42.597z"/>
			<g>
				<path fill="#F88600" d="M41.597,22.953c0.675,0,1.211,0.535,1.211,1.211c0,0.674-0.535,1.225-1.211,1.225H26.298
					c-0.674,0-1.227-0.552-1.227-1.225V8.879c0-0.675,0.553-1.227,1.227-1.227c0.668,0,1.225,0.552,1.225,1.227v12.348l20.39-20.405
					c0.482-0.467,1.242-0.467,1.724,0c0.484,0.482,0.484,1.258,0,1.724l-20.41,20.406L41.597,22.953L41.597,22.953z"/>
			</g>
		</g>
	</g>
	<g id="Layer_9" display="inline">
		<g>
			<path fill="#D30C07" d="M35.392,20.536c-1.071-1.316-2.527-2.357-4.366-3.12c-1.84-0.763-3.848-1.146-6.027-1.146
				c-2.178,0-4.187,0.382-6.026,1.146c-1.84,0.763-3.295,1.803-4.367,3.12c-1.072,1.317-1.607,2.753-1.607,4.306
				c0,1.339,0.404,2.593,1.212,3.763c0.809,1.17,1.913,2.152,3.315,2.947c-0.098,0.356-0.214,0.696-0.348,1.018
				c-0.134,0.321-0.254,0.585-0.362,0.79c-0.107,0.206-0.252,0.434-0.435,0.683c-0.183,0.251-0.321,0.426-0.415,0.529
				c-0.094,0.103-0.248,0.273-0.462,0.509c-0.214,0.237-0.352,0.391-0.415,0.462c-0.009,0.005-0.045,0.045-0.108,0.12
				c-0.062,0.076-0.093,0.114-0.093,0.114l-0.08,0.12c-0.045,0.067-0.065,0.109-0.061,0.127c0.005,0.018-0.004,0.063-0.027,0.134
				s-0.02,0.126,0.006,0.161v0.014c0.036,0.152,0.108,0.275,0.214,0.368c0.108,0.094,0.228,0.14,0.362,0.14h0.067
				c0.581-0.071,1.09-0.169,1.527-0.294c2.339-0.598,4.393-1.678,6.16-3.241c0.67,0.071,1.317,0.107,1.942,0.107
				c2.179,0,4.188-0.381,6.027-1.146c1.839-0.763,3.295-1.803,4.366-3.12c1.071-1.316,1.608-2.752,1.608-4.306
				C36.999,23.289,36.463,21.853,35.392,20.536L35.392,20.536z M33.885,28.258c-0.934,1.053-2.192,1.89-3.776,2.511
				c-1.585,0.62-3.288,0.931-5.11,0.931c-0.545,0-1.124-0.036-1.741-0.108l-0.763-0.08l-0.576,0.51
				c-1.098,0.964-2.325,1.727-3.682,2.29c0.41-0.723,0.723-1.491,0.937-2.304l0.361-1.286l-1.165-0.669
				c-1.161-0.66-2.06-1.445-2.699-2.351c-0.639-0.906-0.958-1.859-0.958-2.859c0-1.223,0.466-2.362,1.399-3.415
				c0.934-1.053,2.192-1.89,3.777-2.511c1.584-0.62,3.287-0.931,5.109-0.931c1.822,0,3.524,0.31,5.11,0.93
				c1.584,0.621,2.843,1.458,3.776,2.512s1.4,2.192,1.4,3.415C35.285,26.066,34.819,27.204,33.885,28.258L33.885,28.258z"/>
		</g>
	</g>
</g>
<g id="Layer_2_1_">
	<path fill="#D30C07" stroke="#D30C07" stroke-width="0.8" stroke-miterlimit="10" d="M31.609,36.237
		c-0.279,0-0.694-0.044-1.271-0.133c-0.594-0.091-1.294-0.305-2.138-0.656c-0.82-0.338-1.763-0.855-2.801-1.533
		c-1.039-0.681-2.156-1.622-3.319-2.797c-0.924-0.912-1.703-1.799-2.311-2.632c-0.609-0.834-1.108-1.62-1.482-2.334
		c-0.375-0.717-0.661-1.379-0.851-1.968c-0.189-0.587-0.319-1.103-0.388-1.534c-0.071-0.446-0.098-0.794-0.083-1.064
		c0.012-0.212,0.019-0.335,0.019-0.369c0.036-0.289,0.109-0.521,0.221-0.753c0.116-0.241,0.263-0.443,0.439-0.601l2.581-2.582
		c0.47-0.471,1.19-0.536,1.676-0.169c0.173,0.129,0.323,0.292,0.444,0.482l2.11,3.998c0.167,0.296,0.216,0.635,0.141,0.993
		c-0.07,0.335-0.224,0.623-0.458,0.856L23.23,24.35c0.051,0.21,0.148,0.453,0.288,0.723c0.149,0.296,0.379,0.659,0.687,1.085
		c0.309,0.427,0.759,0.93,1.336,1.494c0.574,0.587,1.08,1.04,1.512,1.354c0.434,0.317,0.798,0.55,1.081,0.695
		c0.35,0.179,0.518,0.228,0.585,0.241l0.124,0.025l1.07-1.078c0.539-0.481,1.294-0.546,1.784-0.334h0.018l0.127,0.064l3.771,2.228
		c0.392,0.243,0.627,0.56,0.705,0.95c0.064,0.472-0.076,0.875-0.399,1.198l-2.6,2.581c-0.138,0.154-0.34,0.302-0.583,0.419
		c-0.23,0.111-0.464,0.185-0.692,0.218l-0.144,0.012C31.827,36.233,31.729,36.237,31.609,36.237z M17.9,21.279
		c0.002,0-0.004,0.135-0.017,0.358c-0.011,0.202,0.013,0.494,0.073,0.87c0.061,0.384,0.18,0.854,0.355,1.396
		c0.173,0.539,0.439,1.152,0.79,1.823c0.353,0.674,0.827,1.421,1.41,2.219c0.579,0.793,1.325,1.642,2.217,2.522
		c1.122,1.134,2.188,2.035,3.173,2.678c0.99,0.647,1.882,1.136,2.649,1.453c0.765,0.318,1.413,0.519,1.926,0.596
		c1.023,0.159,1.196,0.128,1.346,0.115c0.083-0.009,0.138-0.012,0.157-0.012c0.07-0.015,0.211-0.06,0.356-0.13
		c0.135-0.064,0.241-0.14,0.317-0.223l2.617-2.6c0.12-0.119,0.163-0.238,0.143-0.395c-0.012-0.053-0.06-0.18-0.275-0.313
		l-3.782-2.224c-0.056-0.033-0.518-0.113-0.81,0.145l-1.09,1.111c-0.075,0.079-0.179,0.139-0.312,0.183
		c-0.1,0.035-0.188,0.053-0.27,0.053l-0.334-0.057c-0.207-0.042-0.475-0.147-0.823-0.325c-0.328-0.167-0.733-0.427-1.205-0.772
		c-0.473-0.344-1.018-0.831-1.621-1.448c-0.607-0.593-1.09-1.135-1.43-1.604c-0.338-0.466-0.595-0.872-0.762-1.207
		c-0.199-0.382-0.332-0.74-0.392-1.057c-0.008-0.176,0.01-0.272,0.045-0.378c0.043-0.127,0.1-0.226,0.176-0.303l0.961-0.961
		c0.106-0.106,0.174-0.235,0.207-0.394c0.029-0.138,0.014-0.254-0.048-0.364l-2.097-3.978c-0.043-0.065-0.115-0.143-0.2-0.208
		c-0.105-0.079-0.236-0.153-0.474,0.084l-2.599,2.599c-0.103,0.094-0.179,0.2-0.243,0.334c-0.07,0.145-0.115,0.285-0.134,0.418
		C17.9,21.28,17.9,21.279,17.9,21.279z"/>
	<g>
		<path fill="#D30C07" stroke="#D30C07" stroke-width="0.8" stroke-miterlimit="10" d="M32.896,24.458
			c0.177,0,0.317,0.14,0.317,0.317c0,0.177-0.14,0.321-0.317,0.321h-4.012c-0.177,0-0.322-0.145-0.322-0.321v-4.008
			c0-0.177,0.145-0.322,0.322-0.322c0.175,0,0.321,0.145,0.321,0.322v3.238l5.346-5.35c0.126-0.123,0.326-0.123,0.452,0
			c0.127,0.126,0.127,0.33,0,0.452l-5.352,5.351H32.896z M32.896,24.458"/>
	</g>
</g>
</svg>
