<?xml version="1.0" encoding="utf-8"?>
<!-- Generator: Adobe Illustrator 17.0.0, SVG Export Plug-In . SVG Version: 6.00 Build 0)  -->
<!DOCTYPE svg PUBLIC "-//W3C//DTD SVG 1.1//EN" "http://www.w3.org/Graphics/SVG/1.1/DTD/svg11.dtd">
<svg version="1.1" id="Layer_1" xmlns="http://www.w3.org/2000/svg" xmlns:xlink="http://www.w3.org/1999/xlink" x="0px" y="0px"
	 width="17px" height="18.89px" viewBox="0 0 17 18.89" enable-background="new 0 0 17 18.89" xml:space="preserve">
<g id="Layer_1_1_" display="none">
	
		<image display="inline" overflow="visible" enable-background="new    " width="21" height="27" xlink:href="data:image/png;base64,iVBORw0KGgoAAAANSUhEUgAAABUAAAAbCAYAAACTHcTmAAAAGXRFWHRTb2Z0d2FyZQBBZG9iZSBJ
bWFnZVJlYWR5ccllPAAAAZlJREFUeNq0ls8rBGEYx9/Z5uJE4aKUTUhSIuwJBxflR3JBSs5SnP3I
n8CRC+Uoy0xKuCmWPdBeOCg3UcqPg5KD8XnrHU2T5se+s0999nn3nek73+eZnWfWcBxH2LZdIYRY
gRGoFHpxayJYzuIcmuEY7uFHQ/TB5GNRCQ4ThyKBkKKjcCQFcV3Gekztx40rNO5c0Wo4UQc6YadI
g9swIzyO+nFpcqUzcm2RTp/dhWFZ1jtZ3qxdWED4Ubenrugn1Ihk4totU7rcgiGo0hDshfq/3lF2
gVTQscj9WCOlU6IEYUZ0IFuyCstU9BZ2flSn0zALU1FOjio66ct6opTeRGqHJ8jwvS4JpxOeFsgY
T0pUDotTcj5KC1IhpXeQGiHHuk2KQyvrFh2nrqt5uIE5X0viieImpfqXUzPXJR8mGvTj71FDZol+
HnguJufvJjnD/mXc8vvgC7K+/T34VsMjdk/XoRs3H95Nvr+SumAjqPwXaPAfUM/4v8+5mmiBN2of
BujRYFJTSk5++Sq5SOi9L/ucNkrxD+VXgAEAMTZ98NhBiMoAAAAASUVORK5CYII=" transform="matrix(1 0 0 1 0.6814 -1.6935)">
	</image>
</g>
<g>
	<path fill="#F16538" d="M5.773,10.525c0,0-0.752,0.001-0.76,0.001c-0.093,0.006-0.185,0.045-0.256,0.116l-2.261,2.261
		c0,0-0.001-2.003-0.002-2.013c-0.018-0.204-0.19-0.365-0.399-0.365H0.956c-0.085,0-0.155-0.07-0.155-0.155V3.536
		c0-0.085,0.07-0.155,0.155-0.155h11.39c0.085,0,0.155,0.07,0.155,0.155v2.622c0,0.221,0.179,0.401,0.401,0.401
		c0.221,0,0.401-0.179,0.401-0.401V3.536c0-0.527-0.429-0.956-0.956-0.956H0.956C0.429,2.58,0,3.009,0,3.536v6.833
		c0,0.527,0.429,0.956,0.956,0.956h0.739v2.544c0,0.162,0.098,0.308,0.247,0.37c0.05,0.021,0.102,0.031,0.153,0.031
		c0.104,0,0.207-0.041,0.283-0.117l2.827-2.827h0.567c0.221,0,0.401-0.179,0.401-0.401C6.173,10.704,5.994,10.525,5.773,10.525z"/>
	<path fill="#F16538" d="M16.023,7.479H8.05c-0.527,0-0.956,0.429-0.956,0.956v4.662c0,0.527,0.429,0.956,0.956,0.956h4.991
		l2.022,2.022c0.077,0.077,0.179,0.117,0.283,0.117c0.052,0,0.104-0.01,0.153-0.031c0.15-0.062,0.247-0.208,0.247-0.37v-1.739h0.275
		c0.527,0,0.956-0.429,0.956-0.956V8.436C16.979,7.908,16.55,7.479,16.023,7.479z M16.178,13.097c0,0.085-0.07,0.155-0.155,0.155
		h-0.676c-0.211,0-0.383,0.163-0.399,0.37c-0.001,0.009-0.002,1.203-0.002,1.203l-1.454-1.454c-0.002-0.002-0.003-0.003-0.005-0.004
		c-0.006-0.006-0.011-0.01-0.016-0.015c-0.07-0.062-0.163-0.1-0.264-0.1H8.05c-0.085,0-0.155-0.07-0.155-0.155V8.436
		c0-0.085,0.07-0.155,0.155-0.155h7.973c0.085,0,0.155,0.07,0.155,0.155V13.097z"/>
	<path fill="#F16538" d="M12.037,10.366c-0.221,0-0.401,0.179-0.401,0.401s0.179,0.401,0.401,0.401c0.221,0,0.401-0.179,0.401-0.401
		C12.437,10.545,12.258,10.366,12.037,10.366z"/>
	<path fill="#F16538" d="M3.006,5.228c-0.221,0-0.401,0.179-0.401,0.401c0,0.221,0.179,0.401,0.401,0.401h7.29
		c0.221,0,0.401-0.179,0.401-0.401s-0.179-0.401-0.401-0.401H3.006z"/>
	<path fill="#F16538" d="M5.773,7.877H3.006c-0.221,0-0.401,0.179-0.401,0.401c0,0.221,0.179,0.401,0.401,0.401h2.767
		c0.221,0,0.401-0.179,0.401-0.401C6.173,8.056,5.994,7.877,5.773,7.877z"/>
	<path fill="#F16538" d="M10.175,10.366c-0.221,0-0.401,0.179-0.401,0.401s0.179,0.401,0.401,0.401c0.221,0,0.401-0.179,0.401-0.401
		C10.576,10.545,10.397,10.366,10.175,10.366z"/>
	<path fill="#F16538" d="M13.898,10.366c-0.221,0-0.401,0.179-0.401,0.401s0.179,0.401,0.401,0.401c0.221,0,0.401-0.179,0.401-0.401
		C14.298,10.545,14.119,10.366,13.898,10.366z"/>
</g>
</svg>
